<?xml version="1.0" encoding="utf-8"?>
<!-- Generator: Adobe Illustrator 19.2.1, SVG Export Plug-In . SVG Version: 6.00 Build 0)  -->
<svg version="1.1" id="Layer_1" xmlns="http://www.w3.org/2000/svg" xmlns:xlink="http://www.w3.org/1999/xlink" x="0px" y="0px"
	 viewBox="0 0 49.9 23.2" style="enable-background:new 0 0 49.9 23.2;" xml:space="preserve">
<style type="text/css">
<!-- 	.st0{fill:#6D6E71;} -->
</style>
<g>
	<path class="st0" d="M49.9,2.5c0-1.3-1.2-2.5-2.5-2.5L19,0c-1.4,0-2.5,1.1-2.5,2.5l0,18.1c0,0.7,0.3,1.3,0.7,1.8s1.1,0.7,1.8,0.7
		l28.4,0c1.4,0,2.5-1.1,2.5-2.5L49.9,2.5z M19.3,20.4l0-17.6l27.9,0l0,17.6L19.3,20.4z"/>
	<path class="st0" d="M42.4,5.7l-9.2,7.2l-9-7.2c-0.3-0.2-0.6-0.3-1-0.3c-0.3,0-0.7,0.2-0.9,0.5c-0.4,0.5-0.4,1.3,0.1,1.7l9.9,7.9
		c0.2,0.2,0.5,0.3,0.8,0.3c0.3,0,0.6-0.1,0.8-0.3l10-7.8c0.3-0.2,0.4-0.5,0.5-0.9c0-0.3,0-0.7-0.3-1C43.7,5.3,42.9,5.2,42.4,5.7z
		 M22.7,7.2L22.7,7.2L22.7,7.2L22.7,7.2z"/>
	<path class="st0" d="M14.9,2c0-0.6-0.4-1-1-1L1,1C0.4,1,0,1.5,0,2c0,0.3,0.1,0.5,0.3,0.7C0.5,2.9,0.7,3,1,3l12.9,0
		C14.4,3,14.9,2.6,14.9,2z"/>
	<path class="st0" d="M14.9,8c0-0.6-0.4-1-1-1L6.1,7c-0.5,0-1,0.4-1,1c0,0.3,0.1,0.5,0.3,0.7C5.6,8.9,5.8,9,6.1,9l7.8,0
		C14.4,9,14.9,8.6,14.9,8z"/>
	<path class="st0" d="M13.9,13H9.8c-0.6,0-1,0.4-1,1c0,0.3,0.1,0.5,0.3,0.7C9.3,14.9,9.5,15,9.8,15h4.1c0.6,0,1-0.4,1-1
		C14.9,13.5,14.4,13,13.9,13z"/>
</g>
</svg>
