<?xml version="1.0" encoding="utf-8"?>
<!-- Generator: Adobe Illustrator 19.2.1, SVG Export Plug-In . SVG Version: 6.00 Build 0)  -->
<svg version="1.1" id="Layer_6" xmlns="http://www.w3.org/2000/svg" xmlns:xlink="http://www.w3.org/1999/xlink" x="0px" y="0px"
	 viewBox="0 0 355.1 143.2" style="enable-background:new 0 0 355.1 143.2;" xml:space="preserve">
<style type="text/css">
	.st0{fill:#C48F1B;}
	.st1{fill:#FFFFFF;}
</style>
<path class="st0" d="M203,90.4c-0.1,0-0.1-0.1-0.1-0.1c-0.5,0.2-1,0-1.5,0c-2.8-0.2-6-0.5-8.8-0.7c-1.3-0.1-2.6-0.3-3.8-0.4
	c-1-0.1-2-0.1-3-0.3c-0.5-1.2-0.5-2.8-1.1-3.9c0-0.3-0.1-0.5-0.1-0.8c0-0.1-0.2,0-0.2-0.1c0-0.4-0.1-1-0.1-1.4
	c0-0.1-0.1,0.1-0.2-0.1c-0.1-0.4,0-0.7,0-1.1c-0.1-1-0.7-1.9-0.3-2.7c-0.1-0.2-0.2,0.2-0.2,0c0-0.1,0.2-0.1,0.2-0.2
	c-0.1,0-0.1-0.1-0.1-0.2c-0.4,0.1-0.3,0.5-0.8,0.6c-0.1,0.4-0.1,0.8-0.4,1c-0.3,1.1-1.1,1.8-1.5,2.7c-1.1,1.4-2.1,3-2.8,4.7
	c-0.2,0.2-0.2,0.5-0.6,0.6c-0.1,0.1,0,0.3-0.1,0.4c-1.5,0.1-2.8-0.3-4.1-0.2c-0.3,0.1-1.3,0-1.9,0c-2.1,0-4.4-0.2-6.3-0.5
	c0.1,0.2-0.1,0.2,0.1,0.5c2.8,2.4,4.9,5.9,7.4,8.8c-1.2,1.8-2,4.2-3.5,5.7c0,0.1-0.1,0.2-0.1,0.3c-1.1,1.1-1.7,2.4-2.6,3.6
	c0,0.1,0,0.2,0,0.3c-0.3,0.1-0.2,0.4-0.4,0.4c-0.1,0.1,0.1,0.2,0,0.3c-0.2,0-0.3,0.1-0.4,0.2c0.1,0.3,0.4,0.2,0.6,0.4c0,0,0,0,0,0
	c0-0.3,0.2-0.3,0-0.4c0.1-0.3,0.5-0.4,0.8-0.2c1.2-0.9,2.8-1.3,4.3-1.9c1.8-0.8,3.9-1.7,5.9-2.1c0.1,0,0.1-0.1,0.2,0
	c-0.1-0.1,0-0.2,0.2-0.2c0.4,0.3,0.5,0.6,0.7,0.9c-0.1,0-0.2-0.3-0.2-0.1c0.1,0.1,0.2,0.2,0.3,0.2c0.8,1.4,2.2,2.5,3.3,3.7
	c-0.1,0-0.1-0.1-0.1,0c0.2-0.1,0.1,0.3,0.2,0.1c0.1,0.4,0.5,0.5,0.8,0.9c0.6,0.6,1,1.4,1.7,2.1c0.6,0.6,1.1,1.1,1.7,1.7
	c0.8,0.9,1.7,2,2.5,2.7c0.4,0.4,0.8,0.8,1.1,1.1c0.1,0.1,0.3,0.5,0.4,0.5c0.1,0,0-0.2,0.1,0c0-0.2,0.2-0.2,0.3-0.4
	c-0.3,0-0.2-0.9-0.5-1.5c0.1,0,0.1,0,0.1,0c-0.9-1.5-0.9-4.1-1.6-5.9c0.2,0,0-0.3,0.3-0.3c-0.3-1.2-0.2-2.5-0.6-3.5
	c0.1-0.1,0.1-0.2,0-0.4c-0.4-0.2-0.5-1.8-0.4-2.2c0,0.1,0,0.4,0.1,0.2c-0.2-1.4-0.6-2.5-0.9-3.5c0.1,0,0.3,0,0.2-0.1c0,0,0,0,0,0
	c2.1-0.9,3.6-2.1,5.5-3.1c0,0.1,0.1,0.1,0.1,0.2c0.1-0.2,0.4,0,0.5-0.3c0-0.2-0.2,0.2-0.2,0c0.1,0,0.3-0.1,0.1-0.2
	c0,0.1-0.1,0-0.1,0c-0.2,0-0.4,0.2-0.5,0.2c0.6-0.6,1.6-1,2.3-1.5c0-0.1-0.1-0.2,0-0.3c0.1,0.1,0.2,0.1,0.3,0.1
	c0.1-0.1,0.1-0.2,0.2-0.3c1.9-0.8,3.4-2,5.4-2.7c0-0.1-0.1-0.2,0-0.2C201.6,91.1,202.5,90.9,203,90.4z"/>
<g>
	<path class="st1" d="M158.7,98.8c0.4,0,0.7,0.1,0.5,0.1c0.8-0.1,0.8,0,0.9-0.2c0.5-0.1,1,0,0.4,0.2l1.4-0.2l-0.8,0
		c0.2-0.2,1.3,0.1,1.6-0.2l-1.5,0l0.1-0.1c-0.3,0.1-1,0-1.2,0c0,0,0-0.1,0.3-0.1c-1.8,0-0.5,0.4-2,0.5
		C158.5,98.7,158.6,98.7,158.7,98.8z"/>
	<path class="st1" d="M157.2,98.2l-0.6,0.3l-1.1-0.1c0,0.1-0.8,0.2-0.3,0.3c0.1,0,0.3,0,0.5,0c-0.1,0.2-1.4,0.1-1.1,0.3
		c0.8-0.1,1,0,1.5-0.2c0.8,0,1.3,0.1,1.7,0.1c0.2,0,0.3-0.2,0.6-0.2l-0.2,0l0-0.3c-0.2,0.1-0.5,0-0.7,0l1.2-0.4
		c-0.4-0.3-1.6-0.1-2.1-0.2C157.1,98.1,156,98,157.2,98.2z"/>
	<path class="st1" d="M158.3,98.7L158.3,98.7L158.3,98.7z"/>
	<path class="st1" d="M65.5,100.5c-0.3,0-0.3,0.1-0.4,0.1l3,0c-0.1-0.1-1-0.2-0.4-0.2c-0.3-0.1-1,0-1.1,0.1l0.2-0.1
		c-0.7,0.2-1.2-0.2-0.7-0.2H66l-1.9,0.6C64.8,100.8,64.6,100.5,65.5,100.5z"/>
	<path class="st1" d="M4.3,100.2c0.4,0,0.4-0.1,0.4-0.1C4.6,100.2,4.5,100.2,4.3,100.2z"/>
	<path class="st1" d="M63.6,100.9l-0.6,0.2C63.3,101,63.5,101,63.6,100.9z"/>
	<path class="st1" d="M67.8,98C67.8,98,67.8,98,67.8,98l-0.3,0.1h0L67.8,98z"/>
	<path class="st1" d="M50.1,101.6l-0.2,0L50.1,101.6z"/>
	<path class="st1" d="M75.8,96.9l-1.3,0.2c0.2-0.1-0.5-0.1-0.2-0.2c-0.1,0-0.6,0-0.4,0.1l0.3,0c-0.7,0.3-0.3,0.4-1.4,0.5
		c0.7,0.2,1,0,1.4-0.1l0.3,0l1.1-0.4L75.8,96.9z"/>
	<path class="st1" d="M22.8,98.8L22.8,98.8C22.8,98.8,22.8,98.8,22.8,98.8z"/>
	<path class="st1" d="M22.9,98.7L22.9,98.7C22.9,98.7,23.1,98.7,22.9,98.7z"/>
	<path class="st1" d="M63.9,100.7c0,0-0.1,0.1-0.2,0.2l0.4-0.1L63.9,100.7z"/>
	<polygon class="st1" points="64.9,100.2 66,100.1 66.4,100 	"/>
	<path class="st1" d="M51.9,101.8c-2.3,0,0.6-0.3-0.5-0.4c-0.6,0-0.9,0.2-1.3,0.2c1.8-0.1-0.2,0.5,1.6,0.4c-0.3,0.3-1.3,0.3-2,0.2
		c-0.7-0.2,0.6-0.2,0.8-0.4c-0.7,0-0.6,0.1-0.9,0.2c-1.2-0.1-2.4,0.3-3.1,0c-0.8,0.1-0.8,0.2-1.3,0.3c-0.1,0.3,1.3,0.1,1.6,0.3
		c-0.1,0-0.2-0.1-0.2-0.1l0.7,0.1c-0.7-0.1,0.1-0.3,0.5-0.3c0.3,0,0.8,0,0.7,0.1l-0.4,0.1c0.5,0.1,1.2-0.2,1.7,0
		c0,0.1-0.2,0.1-0.2,0.1c0.6-0.2,1.2-0.2,2.1-0.3l-0.5,0.3c0.7-0.3,2.4-0.2,3.5-0.1c-0.1,0-0.4-0.1-0.2-0.1c0.7-0.1,1.2,0.1,0.9,0.3
		c0.7-0.2,2.5,0.2,3.4-0.1l4.1-1.3c-0.2,0-0.3,0.1-0.5,0.1c-0.4-0.2-0.6-0.2,0.1-0.4c-0.6,0.1-0.4,0.3-1.4,0.3
		c0.4-0.1,0.5-0.4-0.5-0.4c-2.3,0.2-3.9,0.9-6,1.2c-0.1-0.2-1.8-0.1-2.6-0.2c0.3-0.2,0.9-0.2,1.6-0.3l-1.6,0L51.9,101.8z"/>
	<path class="st1" d="M57.3,101.2l-0.2,0C57.2,101.2,57.2,101.2,57.3,101.2z"/>
	<path class="st1" d="M53.9,101.4C53.9,101.4,53.9,101.4,53.9,101.4l-0.2,0L53.9,101.4z"/>
	<path class="st1" d="M63.3,100.3l0.4-0.1L63.3,100.3C63.3,100.3,63.3,100.3,63.3,100.3z"/>
	<path class="st1" d="M63.8,100.6L63.8,100.6L63.8,100.6C63.9,100.7,63.9,100.7,63.8,100.6z"/>
	<path class="st1" d="M43.1,100.2l-0.2,0C43,100.2,43,100.2,43.1,100.2z"/>
	<path class="st1" d="M49.3,101.5c0.8,0,0.1-0.3,1.2-0.3l-0.3,0c0.8-0.1,2.2-0.1,3.2-0.1c-0.1,0.1,0.6,0.1,0.5,0.3
		c0.7,0,1.3-0.1,1.7-0.2c0.4,0.1,1-0.1,1.6,0c-0.2-0.1,0.7-0.3-0.5-0.2c0.1,0,0,0,0.1,0c-0.8-0.1-1.1,0.1-1.9,0.1
		c-0.4-0.1,0.7-0.2,0.3-0.2c-0.9,0.1-2.8-0.1-2.7,0.3c-0.6,0-0.7-0.1-0.9-0.1c-1,0.4-3.8-0.2-3.7,0.3c0.4,0,1,0,1.5-0.1L49.3,101.5z
		"/>
	<path class="st1" d="M62,100.4l-0.2,0L62,100.4z"/>
	<path class="st1" d="M72.1,101.8l-0.3,0.3c-1.9,0.1-2.6,0-4.3,0c-0.1,0,0.1-0.1,0.2-0.1c-1.2,0-2.9,0-3.8,0.1c-0.4,0-1.4-0.1-1-0.2
		c-0.2,0-0.4,0.1-0.6,0c-0.1-0.1,0.5,0,0.5-0.1c-0.2,0-0.2,0-0.3,0c0.3-0.1-0.3-0.4,1-0.4c0.5,0.3-0.9,0-0.6,0.3
		c0.4,0,0.4-0.1,0.4-0.1c0.6,0,0.5,0.1,0.5,0.1c0.2-0.1,0.9,0,1.2-0.1c1.1,0-0.1,0.2,0.6,0.2l0.4-0.3l1.2,0.1
		c1.7-0.1-0.2-0.5,1.7-0.7c-0.3,0.2,0.5,0.4,1.4,0.5c-0.5,0-1.5,0.2-2.2,0.1c1,0.2-1.3,0-0.8,0.3c0.5-0.1,1.3-0.1,1.9-0.1l-0.2,0
		c0.7,0,1.2-0.3,2.1-0.2c0.5,0,0.4,0.1,0.3,0.2C71.8,101.8,72.1,101.8,72.1,101.8z M71.1,101.9l-0.6,0
		C70.6,101.9,70.9,101.9,71.1,101.9z"/>
	<path class="st1" d="M148.7,98.3l0.2,0C148.8,98.3,148.7,98.3,148.7,98.3z"/>
	<path class="st1" d="M94.4,98.1l0.4,0L94.4,98.1z"/>
	<path class="st1" d="M102.4,97.1l0.5-0.1C102.7,97,102.5,97.1,102.4,97.1z"/>
	<polygon class="st1" points="144.4,98.2 144.4,98.2 144.3,98.2 	"/>
	<path class="st1" d="M118.3,97.8c0.1,0,0.2,0.1,0.3,0.1C118.6,97.9,118.5,97.9,118.3,97.8z"/>
	<polygon class="st1" points="102.3,97.1 102.3,97.1 102.4,97.1 	"/>
	<path class="st1" d="M90.9,97.2l-0.2,0C90.8,97.3,90.9,97.2,90.9,97.2z"/>
	<path class="st1" d="M91.4,98.1l-0.2,0L91.4,98.1z"/>
	<path class="st1" d="M79.2,97.5l-0.5,0C79,97.6,79.1,97.5,79.2,97.5z"/>
	<path class="st1" d="M90.2,97.9L90.2,97.9C90.2,97.9,90.2,97.9,90.2,97.9z"/>
	<polygon class="st1" points="151.7,99.2 151.7,99.2 151.6,99.2 	"/>
	<path class="st1" d="M152.8,98.7l0.4,0C153.1,98.7,153,98.7,152.8,98.7z"/>
	<path class="st1" d="M125.2,98.3c0.1,0,0.4,0.1,0.3,0.1C125.7,98.4,125.7,98.3,125.2,98.3z"/>
	<path class="st1" d="M149.4,101.1c0.1,0,0.2-0.1,0.3-0.1C149.5,101,149.3,101.1,149.4,101.1z"/>
	<path class="st1" d="M149.6,101l0.3-0.1L149.6,101z"/>
	<path class="st1" d="M122,100.9c0,0-0.1,0-0.1,0C121.9,100.9,121.9,100.9,122,100.9z"/>
	<path class="st1" d="M153.6,98.7c0.1-0.1,1.9-0.2,0.4-0.3c0.1-0.2,1-0.1,1.4-0.2c-0.3-0.1,0.1-0.1,0.1-0.2c-0.2,0-0.4,0.1-0.8,0.1
		c-0.2-0.1,0.3-0.2,0.7-0.1c-0.5-0.1,0.6-0.2-0.1-0.3c-1.5,0.1-2.5,0.2-3.6,0.5c0.8-0.1,1.8-0.1,2.5,0l-0.3,0.2
		c-0.8-0.2-1.3,0-2-0.1l1.7,0.1c0.8,0.2,0.3,0.2-0.4,0.2C153.4,98.7,153.6,98.7,153.6,98.7z"/>
	<polygon class="st1" points="152.4,100.5 152.5,100.5 152.5,100.5 	"/>
	<path class="st1" d="M79.3,101.5l-0.1,0.1C79.3,101.5,79.3,101.5,79.3,101.5z"/>
	<path class="st1" d="M151.4,99.5L151.4,99.5C151.4,99.5,151.4,99.5,151.4,99.5z"/>
	<path class="st1" d="M83,101.5L83,101.5C83,101.5,83,101.5,83,101.5z"/>
	<path class="st1" d="M84,97.3C84,97.3,84,97.2,84,97.3C83.9,97.2,83.9,97.3,84,97.3z"/>
	<path class="st1" d="M83,101.5C83,101.5,83,101.5,83,101.5C83,101.5,83,101.5,83,101.5z"/>
	<path class="st1" d="M100.9,100.8c0,0-0.1,0-0.1-0.1C100.7,100.7,100.8,100.8,100.9,100.8z"/>
	<path class="st1" d="M97.4,100.5L97.4,100.5L97.4,100.5z"/>
	<path class="st1" d="M124.4,97.4l-0.4,0C124.1,97.5,124.2,97.5,124.4,97.4z"/>
	<path class="st1" d="M83,101.5c0,0-0.1,0-0.2,0.1C82.9,101.6,82.9,101.6,83,101.5z"/>
	<polygon class="st1" points="106.3,99.8 106.2,99.8 106.3,99.8 	"/>
	<path class="st1" d="M108.1,99.9c-0.1,0-0.1,0-0.1,0.1c0.7-0.1,1.9,0,2-0.2c-0.2,0-1.4-0.1-1.2-0.2c-0.5,0.1-1.1-0.1-1.4-0.1
		c0.8,0.1,0.1,0.2-0.4,0.2c-0.5-0.1,0.1-0.2-0.3-0.2l-1.1,0l0.9,0l-0.3,0.2l0.1,0C108,99.7,106.5,100.1,108.1,99.9z"/>
	<path class="st1" d="M108,100c-0.1,0-0.2,0-0.3,0C107.9,100,108,100,108,100z"/>
	<path class="st1" d="M114.5,100.3l0.3,0L114.5,100.3z"/>
	<path class="st1" d="M67.2,100c0,0.1,0.9,0.2,0.9,0l-0.8-0.1L67.2,100z"/>
	<path class="st1" d="M132,99.4h-0.3l-0.1,0C131.7,99.5,131.9,99.4,132,99.4z"/>
	<path class="st1" d="M109.1,99.5c-0.2,0-0.2,0-0.3,0.1C109,99.5,109.1,99.5,109.1,99.5z"/>
	<path class="st1" d="M132.1,99.8c0.1,0,0.3,0.1,0.3,0.2c0.3,0,0.5-0.1,0.7-0.1C132.9,99.9,132.5,99.9,132.1,99.8z"/>
	<path class="st1" d="M133.2,99.9L133.2,99.9L133.2,99.9z"/>
	<path class="st1" d="M66.6,100l-0.2,0l0.1,0l-0.6,0l-0.3,0c0,0,0.1,0,0.1,0l-0.2,0c-0.5,0.2-1.8,0.3-2.1,0.4
		c-0.5,0.1-1.1,0.1-1.4,0.1c0.3,0,0.8,0,0.7-0.1c-0.7-0.1-1-0.4-2.2-0.1l0.7,0l-1.6,0.3c-0.6-0.1,0.8-0.2,1-0.3
		c-1.2,0.2-2.2-0.3-2.8,0c-0.1-0.2-0.2-0.5-1-0.5c0.6,0.2-0.5,0.1,0,0.3c-0.3,0.1-0.9-0.1-0.9,0.1l0.1-0.1c-1.4-0.3-1.8,0.2-2.4,0.3
		c-1.6,0.1-2.4,0-3.7,0c-0.1-0.1-0.4-0.4-1-0.4c-0.3,0.2-1.5,0.2-1.6,0.4c1,0.1,0.8-0.2,1.4-0.2c0.5,0.2,0,0.2,0.7,0.3
		c-0.5-0.1-2.4,0.1-3-0.1l0.2,0c-0.9-0.1-1.1-0.6-2.6-0.3l-0.7,0.1c0,0,0,0,0.1-0.1c-1.2,0-0.9-0.3-2.2-0.1c0.1,0,0,0,0.1,0
		c-0.8-0.1-1.5,0.1-2.1,0.2c-0.3-0.2,0.1-0.2,0.3-0.3c-1.3-0.1-2.8,0.2-3.6,0.4l-0.9-0.1c0.5-0.1,1.1-0.3,1-0.4
		c-0.5,0-0.4,0.1-1,0.1c0.1-0.1,0.4-0.2,0.7-0.4c-1.4-0.2-0.3,0.4-1.3,0.1c-0.4,0-0.7,0.2-0.7,0.3l-0.8-0.2
		c-0.1,0.2-1.1,0.2-1.7,0.2c-0.1,0.1,0.5,0.2,0.8,0.1c0,0.1-0.7,0.2-1.2,0.2c-0.2-0.4-2.8,0-2.3-0.4c-1.9,0.1-4.7,0.2-6,0.3
		c-0.4-0.1-1.3-0.1-0.8-0.3c-1.6,0-2.4,0.4-3.9,0.3c-0.1,0,0.7,0,0.6-0.1c-1,0.1-1.9-0.2-3.4-0.1c0.3,0,0.3-0.1,0.4-0.1
		c0,0.1-0.6,0.1-1.1,0.2c-0.2,0,0.3,0,0.2-0.1c-3.1-0.2-5.4,0.3-8.4,0.3c0.9,0,1.2-0.2,1.2-0.3l-0.9,0c-0.3,0.1-1,0.1-1.5,0.2
		c-0.1,0-0.3-0.1-0.1-0.1c-1.7-0.2-2.6,0.4-4.7,0.3l2.5-0.5l-0.6-0.2L3,99.4c-0.7-0.1-1.2,0.2-1.3,0c0.1,0,0.5,0,0.5-0.1
		c-0.6-0.1-0.7,0.1-1.2,0.1C2.2,99,4.7,99,6,99c0.2,0-0.2,0.1-0.2,0.1c0.5,0,0.9,0.1,1.5,0C7.7,99,7,99,6.7,99
		c0-0.1,0.2-0.1,0.6-0.1c0.1,0.2,2,0.1,2.5,0.3c2-0.1-0.3-0.5,1.6-0.4l0.6,0.2c1.1-0.2,2.6-0.3,3.8-0.3l-0.3,0
		c-0.2,0.1,0.1,0.1,0.2,0.2c1,0.1,1.8-0.2,2.4,0c1.1-0.2,2.9-0.4,4.2-0.5c0.3,0.3-1.6,0.2-2.1,0.4l1.1,0c-0.7,0-1,0.1-1.4,0.3
		c1,0,1.3-0.2,2.3-0.3c-0.1,0.1,0.1,0.1,0.5,0.1l0.1-0.2c0,0,0.1,0,0.2,0l1.7-0.1c-0.4-0.1-0.4-0.2-0.8-0.2c0.2,0.1-0.2,0.1-0.6,0.1
		c0.4-0.1-0.4-0.1-0.4-0.2c0.9,0,1.9,0,2.5-0.1l0.2,0.2c0.8,0,1.7,0,2.3,0l-0.2,0.1c1,0,2-0.1,2.9,0.1c0.9-0.2,2-0.3,2.7-0.5
		c0.4-0.2,2.6,0.3,3.6,0c0.1,0-0.7,0.2-1,0.2c0.7,0,1.2-0.2,1.4,0c-1.5-0.1,0.1,0.2-0.6,0.2c0.7,0,1.4,0,1.8-0.1
		c-1.1,0,0.4-0.3-0.7-0.2c0.9-0.2,2.1-0.3,3.2-0.2c0,0.1,0.1,0.1,0.5,0.2l0.3-0.1c0.5,0-1,0.2,0,0.2c1-0.2,3.1,0.1,3.5-0.3
		c0.8,0.2-1.5,0.2-0.3,0.4c-0.7,0.2-1.6,0-1.9,0.2c0.7-0.1,0.2,0.2,0.7,0.2l0.7-0.1l-0.2,0c1.3-0.2,3.3-0.1,4.9-0.1
		c1.4-0.2,2.3-0.5,3.9-0.5c-0.5,0.1,1.4,0.1,0.3,0.4c0.8,0.1,1.5,0,1.5-0.1c-0.7,0-0.2,0-0.8-0.1c0.4-0.1,1.3-0.1,1.6,0
		c-0.2,0-0.1,0-0.1,0.1c0.8,0.1,0.4-0.1,1-0.2c0.2,0.2,1.3,0,1.8,0.1l0.8-0.2c-0.4,0.2,0.7,0.1,0.8,0.2c0.5-0.1,1-0.3,1.8-0.3
		c-0.3,0.1,0.8,0.1,0.8,0.3c1.4,0.1,2.4-0.4,3.7-0.2c0,0-0.3,0.1,0.1,0.2c0.3,0,0.9,0,1.2,0l0,0l0,0c0.2,0,0.3,0,0.3-0.1
		c0.6-0.2,0.9-0.3,2-0.4c-0.1-0.2-1-0.1-1.4-0.1L68,97.7c-0.3-0.3-1,0-1.3,0c0.7-0.3,2.6-0.2,3.8-0.4c-0.7-0.2-2.2-0.3-3.6-0.3
		l0.6,0.1l-0.7,0l0.7,0.2c-0.7,0-1.2,0-1.8,0c0.7,0,1,0.2,0.6,0.2c-0.8-0.2-0.8,0.1-1.4,0.1c0.3,0,0.8,0,0.5,0.1
		c-1.2-0.2-1.5-0.1-2.6-0.3c0.1,0.3-1.3,0-1.5,0.3l0.5,0l-1.1,0.2c-1-0.2,0.9-0.2-0.6-0.4c-1.4,0-1.3,0.3-2.4,0.3
		c0.4-0.2,1.2-0.3,2.1-0.3l-0.5-0.1c0.3-0.1,1.5-0.1,2.1-0.1c-1,0.2,0.5,0.1,0.9,0.2c0.1-0.2-0.6-0.1,0.2-0.3c-0.7,0-0.8,0-1.7,0
		c1.9,0.1,1.7-0.6,3.4-0.4c-0.8,0.1,0.3,0.2,0.4,0.3c0.4,0,1.1-0.1,1.4-0.1l-0.3-0.2c1-0.1,1.3,0.4,2.5,0.2c0.1-0.1-1,0-0.8-0.1
		c1.6-0.2,2.1,0.2,3.5,0.4c0.1-0.1,0.1-0.2,0.5-0.4c-0.2,0.1,0.2,0.2-0.3,0.3c0.5,0.1,1,0,1.4-0.1c-1-0.1,0.4-0.2,0.6-0.3
		c0.5,0-0.1,0.1-0.5,0.2c0.4,0,0.9,0.3,1.1,0c0,0.2-1.1,0.4-1.9,0.4l0.5,0c-0.3,0.1-0.4,0.1-0.9,0c0.5,0.1,0.4,0.3,0.3,0.4
		c-0.1,0,0,0,0-0.1c-0.4,0-0.7,0-0.6,0.1c-0.4,0.2,0.6,0.1,0.8,0.2l0.6,0l2.1-0.7c0.9-0.1,1.3,0.1,1.9,0.2l0.2-0.2
		c0.8,0,1.5,0.1,1,0.3c0-0.1-0.1,0-0.3-0.1c0,0-0.1,0-0.1,0.1l0,0l1.4-0.1c-1.4,0.3-0.1,0.3-0.3,0.6l1.4-0.1c-0.9-0.1,0-0.2,0.3-0.2
		c0.1,0.2,1.1,0,1.6,0l0,0c0.5,0.1,1.3,0,1.8,0c0-0.1,0.7-0.4,1.1-0.5c-1-0.1-0.4-0.1-0.5-0.2c0.1,0,0.3,0,0.3,0
		c0.1-0.1-0.2-0.1-0.2-0.1c-1,0.1-2.1,0.1-2.5,0.4c0.3,0.1,0.5-0.1,0.9,0c-0.5,0.2-1.2,0.1-2.1,0.1l-0.3-0.2l-0.9,0.1
		c0.4-0.1,0.1-0.2,1.1-0.3c-0.1-0.1-0.9,0-1.5,0l-0.3,0.2c0.1-0.1-1.1-0.1-0.2-0.3l1.4-0.2l-0.4-0.1l1.2,0l-0.3,0.1
		c1.9-0.1,0.6,0.4,2.4,0.2c0.6-0.2,1.2-0.3,2.4-0.2c-0.8,0.1-0.1,0.2-0.4,0.3c0.9,0.1,1.1-0.1,1.6-0.2c0.2,0.1,0.4,0.2-0.4,0.2
		c-0.1,0.3,1,0,1.1,0.2c2.5,0,2-0.9,5-0.5L91.8,97c1.9-0.1,3,0,4.7-0.1l1.4,0.3c-0.3,0-1.1,0.3-0.7,0.4c-0.7-0.3-1.4-0.2-2.1-0.3
		c-0.1,0.1,0.2,0.1,0.3,0.2c-0.4,0-0.7-0.1-1.2-0.1c0,0.1,0.7,0.1,0.2,0.2l-0.8-0.2c-1,0.1-0.5,0.4-1.7,0.3c0.2-0.2,0.7-0.4,1.2-0.4
		c-0.6,0,0.7-0.1,0.2-0.2c-0.8,0.2-1.2,0-2.3,0.2c0.1,0,0.2-0.1,0.4-0.1L89.8,97c0.4,0.1-1.3,0.1-1.1,0.3c1.7,0.1,1.2,0,3.1,0.1
		c-0.5,0-1.2,0.2-1.6,0.4c0,0,0,0-0.1,0c-0.3,0.2,0,0.2,0,0.6c0.9-0.2,1.4,0,2.5-0.2c0.2-0.2-0.6-0.2-1.1-0.2l0.9-0.1l-0.2,0.1
		l2.3,0.1c-0.4,0-0.6,0.1-0.8,0.2c0.3,0,0.6,0.1,0.9,0.1c-0.1-0.2,0-0.3,0.3-0.3c1.5,0,2.3,0.2,2.8,0.4l0.2,0
		c-0.2-0.2,1-0.3,1.5-0.5c0,0.2,0.8,0.1,1.2,0.2c0.2-0.2-0.1-0.5-0.6-0.7c-1,0.2-0.6,0.2-1,0.5l-1.6,0.2l0.4-0.2
		C96.8,98,96,98.2,96.1,98c0.4-0.1,1.1-0.1,1.5-0.2l-0.5-0.1c0.9-0.2,0.5,0.2,1.6,0.1c-0.4-0.2,0.1,0,0.6-0.1
		c-0.4-0.1-2,0.1-1.6-0.3c0.6-0.1,2,0.4,2.7,0.1l0,0c1.1,0,1.5-0.1,2-0.3c0.5,0.1,1.2,0,1.7-0.1l0,0.1l0.7,0c-0.4,0.2-0.9,0-1.5,0
		l0.1,0.2c-0.7-0.2-1.2,0.1-1.8,0.3c0.8-0.1,2.3,0,2.5-0.3l0.5,0.2l0.2-0.1c0.4,0.1,0,0.3-0.7,0.4c-0.1,0-0.2-0.1-0.2-0.1
		c-0.3,0.1-0.7,0.2-1.5,0.2l0.4-0.1c-1,0-2,0.1-2.3,0.2c1.5,0.1,3,0.1,4.4,0.1c0.4-0.4,0.9-0.6,1.1-1c0.9-0.1,2.2-0.1,3,0l-0.1,0.1
		c0.4,0,0.8,0,1.1,0c0.4,0.1-0.3,0.2,0,0.2l1.3-0.1c-0.1,0.2-1.2,0.2-1.8,0.2c0.1,0,0.3,0,0.2-0.1c-0.6-0.1-1.8,0.2-2.1,0
		c-0.3,0,0.6-0.2-0.4-0.2c-0.7-0.1-0.9,0.1-1,0.2c0,0.1,1.1,0.1,0.7,0.2c0.5,0,0.8-0.1,1.4,0c-0.5,0-1.3,0.2-1.5,0.1
		c-1.1,0.2-0.9,0.6-0.4,0.7c-0.1-0.1,1.9-0.2,0.5-0.4c0.6-0.2,1.8-0.2,2.6-0.3l0,0l1,0c-0.1,0-0.4,0.1-0.5,0.2l1.4-0.3
		c-0.8,0.2,0.5,0.1,0.8,0.2c0.1-0.1,0.7-0.3,0.2-0.3c-0.6-0.1-0.3,0.1-0.9,0.1l0.8-0.2l0.1,0l0.5-0.2c1,0-0.4,0.4,0.9,0.3l-0.2-0.3
		c1.5,0,3.5,0.3,4.6,0.2c-0.3,0.2-0.4,0.4,0,0.5c-0.5,0-1.4,0-2.1,0c-0.1,0,0.8-0.3,1.6-0.3c-0.4-0.4-1.8,0.3-1.9-0.2
		c-1.9-0.1-1.4,0.4-3,0.2c0,0.2-0.4,0.1-0.5,0.3c0.5,0.3,2.1,0,3.1,0.1c-0.1,0-0.3,0-0.3,0.1c0.7,0.1,1,0,1.5-0.1l-0.1,0
		c0.9-0.2,0.6,0.1,1.1,0.2c0.2,0,0.9,0,0.8-0.1l1,0.2l0-0.2c0.5,0,0.6,0.1,1.1,0l0-0.2l-1.3-0.1c0.7-0.1,0.2-0.2,0.9-0.2
		c-0.8,0.2,0.6,0.1,0.7,0.3l0.5-0.1l-0.1,0.1c0.4,0.1,0.5-0.1,1,0c-0.6-0.1-1-0.2-1.7-0.1c0.5-0.1,1.6-0.2,1.9-0.2
		c0.6-0.1,1,0.1,1.5,0.1c-1,0.1,0.4,0.6-1.7,0.4c0,0,0.2,0,0.3,0c-0.3-0.2-1.2,0-1.7,0.1c0.1,0.1-0.4,0.2,0.4,0.3
		c-0.3-0.1,0.7-0.3,1.4-0.2l-0.1,0.3l1.1,0l-0.1,0c0.4,0.2,1.2,0,1.9,0.1c0.5-0.1,2.6,0,1.7-0.3c0.7,0.2,1.3,0,2-0.1l-0.9-0.1
		c1.1-0.2,0.8-0.1,1.6-0.4c0.1,0.1,0.3,0.1,0.1,0.2c1.5,0,3.6,0.1,4.4-0.1c1,0,1.2,0.4,2.6,0.2c0.3,0-0.2-0.3,0.7-0.2
		c0.1,0-0.9,0.2,0.1,0.2c0.8-0.2,1.8,0.1,2.8-0.1c0.5,0.1,1.4,0.1,1.2,0.2c-0.8,0-2,0-2.2,0.1c0.1-0.1-0.6-0.1,0-0.2
		c-1.3-0.1-0.8,0.1-1.9,0c-0.1,0.1,0.6,0.2,0.8,0.1c0,0.2-2.2,0.1-1.2,0.4c1.2,0,1.6-0.5,2.6-0.2c-0.4,0.2-1.1,0-1.6,0.3l0.9,0.1
		l0.6-0.2l0,0c1.5,0.2,1.4-0.3,2.8-0.4c-0.8-0.2,0.2-0.4-0.4-0.5c0.9,0,1.6,0,1.6,0.3c-1.7,0.2-0.1,0.3-1.7,0.5
		c0.3,0.1-0.4,0.4,0.6,0.4c1-0.2-0.3-0.2,0.7-0.3c0.1,0,0.1,0,0.1,0.1c0.5-0.1,0.6,0,1.1-0.1l-0.1,0.1c0.7,0.2,0.8-0.2,1.4,0
		c-0.2-0.2,0.4-0.2,0.8-0.3c-0.6-0.1-1-0.3-2.2-0.3c-0.2,0.1-0.1,0.2-0.6,0.3l0.8,0l-0.5,0.1l-0.8-0.1c1-0.1,0.5-0.3,0.9-0.4
		c0.9,0.1,0.7,0,1.3,0c-0.1,0.2,1.7,0.4,2.8,0.5l-0.5,0c-0.8,0.1,0.5,0.2,0.5,0.2l0.5-0.1c-0.1,0-0.2,0.1,0,0.1
		c0.7,0,0.7-0.3,1.4-0.3c0.1,0.1-0.6,0.3-0.1,0.4c0.2,0.1,0.7,0.4,1.6,0.3c0.1,0,0.3-0.1,0.6-0.1c0,0-0.1,0-0.1,0l0.6,0.1
		c-0.6,0.2-1.1-0.1-1.7,0.1l-0.1,0.2c-0.4,0-1,0.1-1.3,0.2c0.7,0,0.8,0,1.5-0.1c0.1,0.1-0.4,0.2-0.5,0.2l0.1-0.1
		c-0.9-0.2-1.3,0.2-2.4,0.1c-0.2,0-0.1,0,0-0.1c-0.9,0.2-1.8-0.1-2.6,0.2l0.3-0.1l-2.9,0.5l0,0.1c0.1,0-0.3,0-0.5,0l0,0l-1.6,0.2
		c0.1,0,0.3,0.1,0.5,0.1c0.2-0.1,1.2,0,1.1-0.2c0.5,0.1,1.3-0.1,1.6,0c-0.6-0.1,0.5-0.2,0.6-0.3c0.2,0.1,1,0,0.9,0.2
		c0.1,0-0.3-0.1-0.6,0c-0.7,0.2,1.3,0.1,0.4,0.3c1.1-0.1,2.5-0.1,3.6-0.2l-0.6-0.1c0.5,0,1.7,0,1.8,0.1l-1.3,0.1
		c0,0.2,1.1,0,1.2,0.1l1.4-0.3l-0.6,0c0.4-0.1,1.6,0,2.6,0.1c-0.5,0.3-1.4,0-2.4,0.1c-0.7,0.1,0.4,0.3-0.2,0.3
		c0.2,0.1,0.6,0.1,0.8,0l0.3,0c-0.6,0.2-2,0.2-2.8,0.4c0.1,0,0.1-0.1,0.2-0.1c-0.7-0.1-1.4-0.1-2.1,0c0.4,0.1,0.5,0,0.7,0
		c0,0.1-0.6,0.1-0.9,0.1c0.6,0.1,0.1,0.1,0.5,0.2c-0.4,0.1-0.7,0-1.2,0c-0.3-0.1,0.2-0.1,0.2-0.2c-0.5,0.1-0.7-0.2-1.5-0.1
		c1,0-0.3,0.3-0.6,0.3l0.2,0c-0.3,0.1-0.6,0.1-0.8,0c0.4-0.1,0.8,0,0.7-0.2c-0.3,0-0.5,0-0.8,0.1l0.3-0.1l-1.3,0
		c-0.2,0.1-0.6,0.3-0.7,0.5c-0.3-0.1-0.8,0-1.1,0l0.1-0.1c-0.6-0.1-1.9,0-2,0.1c-0.4-0.1,3-0.7,0-0.6c-1.1,0-0.7,0.3-1.4,0.5
		c0,0,0,0,0-0.1c-0.5,0-0.5,0.1-1,0.2c0.3,0.1,0.7,0.1,0.9,0c-0.1,0.1-1,0-1.4,0.1c0.5-0.2-1-0.1-0.6-0.2c-1-0.1-2,0-2.6,0.2
		c-0.7-0.3-1.2,0-2.3-0.1c0.2,0,0.5,0,0.7,0c0.6-0.2-1.1-0.1-0.2-0.3c-0.2,0,0,0.1,0.2,0.1c0.4,0,0.7-0.1,0.6-0.2l-0.9-0.2l0.3,0
		l-1.3-0.2c0,0,0.1,0.1,0.2,0.1c-1.6-0.1-3.3,0-4.7,0c-0.3,0.5-3.4,0.2-4.5,0.5c0.3-0.1,0.5-0.4,0.3-0.5c0.2,0,0.8-0.2,1.3-0.2
		c0.1,0.1,0.8,0.2,0.3,0.3c1.5-0.1-0.2-0.2,0.2-0.4c-1.7,0-2.7,0.4-3.8,0.5l0-0.1l-0.8,0.1c0.7,0,0.6,0.3-0.2,0.2l0.1,0
		c-0.5-0.1-1.5,0-2.3,0l-0.5,0.2c-0.8,0-0.8-0.3-1-0.5c-1.2,0-1.9,0.2-2.7,0.4c-0.4-0.1-2.2-0.2-1.2-0.3c-1.1,0.1-0.9,0.8-2.7,0.4
		l0.5-0.1c-1.8,0-4.3,0.3-5.1,0.1c0.7-0.5-2.2-0.5-2.5-0.9c0.1,0.1-0.6,0.1-0.7,0.2c-0.1-0.1-0.4-0.1-0.6,0c0.7,0.1-0.5,0.5,0.8,0.3
		c-0.7,0.3-1.5,0.6-3,0.5l0-0.2l1.2,0.1c-0.1-0.1,0.5-0.1,0.7-0.2c-2.2-0.1,0.3-0.5-1.9-0.4c-0.2,0.1-0.1,0.1-0.6,0.1
		c0.3,0,0.3-0.1-0.1-0.1l-0.4,0.2c-0.8-0.3,1.3-0.2,0.6-0.4c0.9-0.2,2.3-0.2,2.1-0.5c-1.4-0.1-1.3,0.5-2.7,0.3l-0.2-0.1
		c-0.5,0.1-0.6,0.2-0.9,0.3c0-0.1-0.2-0.1-0.5-0.1c-0.9,0.2-1.4,0.3-2.2,0.6c2.1-0.2,1.8,0.2,4,0c-0.3,0.1-1.9,0.1-2,0.4l0-0.2
		c-0.7,0.1-1.4,0.2-2.3,0.1l0.5-0.1c-1.2,0.1-2-0.3-2.9,0c0.3,0,0.6,0,0.8,0c-0.6,0.1-1.4,0.1-2,0l-1.4,0.3c0-0.1-0.9-0.1-0.4-0.3
		c-1-0.1-1.5,0.1-2,0.2c-1-0.2,0.9-0.1,1-0.4c-1.4-0.1-2.9,0-3.7,0.2c0.3,0,0.4,0.1,0.4,0.1c0-0.1-0.6,0-0.9,0l-0.2,0.1
		c-0.5-0.1-0.4-0.2,0-0.2c-0.5,0-1.1,0.2-1.6,0c0.9-0.1,1.9,0,2.4-0.1c-1.8,0.1-1.8-0.4-4-0.2c0-0.1,0.4-0.2-0.1-0.2
		c-1,0-0.3,0.3-0.6,0.4c0.8-0.1,1.1,0,1.6,0.2l-0.2,0.1c0-0.1-0.5-0.1-0.7-0.1l-0.1,0.2c0.1-0.2-0.7-0.4-1.3-0.3
		c0.6,0.2,0.5,0.2,0.6,0.4c-0.9,0.2-1-0.2-1.9,0c0.1-0.1,0.9-0.1,0.2-0.2c-0.6,0-0.5,0.2-0.9,0.2c0.5-0.2,0.3-0.3,0.8-0.6
		c1.1,0,0.4,0,1.5-0.1l-0.9-0.2c0.9,0,0.7-0.2,0.7-0.3c-1.5-0.2-1.2,0.3-2.2,0.2c-0.5,0.1,0.9,0,0.2,0.2c-0.9,0-0.2,0.1-1.3,0.2
		l0.2-0.1c-0.3-0.1-0.6,0-1,0c-0.4,0.1,0.5,0.7-1.2,0.7c0.1-0.1,0.1-0.1,0.1-0.1l1.6-1.6c-1.7,0-3.6,0-5.6-0.1
		c-0.5-0.3,1.4-0.3,1.3-0.4l0.9,0.1c-0.1,0.1-1.9,0-1.1,0.3c1.6-0.1,2.3,0.1,3.8-0.2c-0.5-0.3-2,0.1-3-0.2c0.4,0,0.8,0,1.1-0.1
		l-2.9-0.1L68,99.5l1.3,0.1c-0.9,0-1.7,0.1-1.8,0.4l0.2,0l-0.3,0.1L66.6,100z M6.3,99.9c0.1,0,0.1,0,0.1-0.1
		C6.4,99.9,6.4,99.9,6.3,99.9z M84.9,99.2l-3.7-0.1c2.2,0.4,3.7,0.8,0.1,0.8l-0.2,0c0.5,0.1,1.3,0.1,2,0c0.6-0.2,2.6-0.7,2.6-0.8
		c-0.2-0.1-0.5,0-0.9,0L84.9,99.2z M85.8,100c0.7,0,0.5-0.1,0.7-0.1l-0.7,0C85.8,99.9,85.8,99.9,85.8,100z M86.4,99.7
		c-0.1,0-0.1,0-0.2,0L86.4,99.7z M72.7,99.6L72.7,99.6l-0.4,0C72.3,99.6,72.4,99.6,72.7,99.6z M74.1,99.8l0.2-0.2l-0.5,0
		C73.9,99.7,73.9,99.8,74.1,99.8z M78.7,100.4c0.3-0.2,1.3-0.2,1.3-0.4c0.1-0.1-0.1-0.1-0.4-0.1l-0.8,0c0,0-0.1,0.1-0.2,0.1
		c0.3,0,0.5,0.1,0.4,0.2c-0.7-0.3-0.7,0.2-1.4,0.1C77.3,100.5,78.5,100.5,78.7,100.4z M139.7,99.8c0,0,0.1,0.1,0.2,0.1l-0.6,0.1
		c-1,0-1.8-0.4-2.7-0.1c-0.4-0.1-0.6-0.2-0.9-0.3l0.6,0C138.9,99.2,137.7,100.1,139.7,99.8z M128.2,99.4c0.1,0,0.1-0.1,0.1-0.1
		c-2.2,0.4-4.1,0.5-5.3,0.5c0.2,0.2,1.3,0.3,1.8,0.4l-0.5,0.2l-0.3-0.2l-0.8,0.2c0.2,0.1,0.9,0.1,1.3,0.2c0,0,1.4-0.3,1.8-0.4
		l-1.1-0.1c0.3,0.1,1.7,0,2.3,0c0-0.1-1-0.2-1.1,0c-0.1-0.1,1-0.1,0.3-0.3c0.9-0.1,2.2,0,2.8,0l0.1,0.2c0.7,0.1,0.5-0.3,1.3-0.1
		c-1,0,0.2,0.3-0.6,0.3c0.3,0.1,0,0.3,0.8,0.2c0.7-0.3,0.8,0.2,1.5-0.1c0.4,0.1-0.5,0.2,0.4,0.2c1-0.2,0.9-0.3,1-0.5
		c-0.9-0.1-1,0.3-1.7,0.2l1.4-0.4c-0.3-0.1-0.5-0.1-0.6,0c0.3,0,0.5-0.1,0.8-0.2l0.3-0.1c-0.8,0-1.5,0-1.7-0.1l0.1-0.1
		c-0.3-0.1-0.8,0-1,0.1c-0.7,0-1.5,0.2-1.6,0l0.3-0.1C129.5,99.4,129.4,99.4,128.2,99.4z M98.6,99.1c0.5,0.4,1.1,0.8,3.7,0.7l-0.2,0
		c1.3,0.3,2.5-0.3,4.1-0.1c-0.8,0.2-0.7,0.1-1.6,0.5l0.8-0.1c-0.2,0.2,0.6,0.1,1.2,0.1l-0.5,0.3c-0.4-0.1-1.3-0.1-1.3,0
		c0.2,0-1.2-0.3-2-0.3c0.1,0.2,1.7,0.1,1,0.4c0.6-0.1,0.7,0.1,1.4,0c-0.7,0.1-0.2,0.2-0.6,0.4l1.1-0.1c0,0.1-1.6,0.1-0.7,0.4
		c0.4-0.1,1.6,0,1.7-0.2l0,0.1c0.8,0,0.4-0.3,1.4-0.2c0-0.1-0.2-0.2-0.5-0.1c-0.3,0-0.4,0.2-1,0.2c-0.3-0.2,0.8,0,0.3-0.2
		c-0.2-0.1-1.7,0.1-1.2-0.2l0.8,0c0-0.2,0.6-0.2,0.6-0.3c0.5-0.1,1,0.1,1.5,0c0.2-0.1-0.2-0.4,0.7-0.3c0.7,0.3,2.6,0.2,3.4,0.2
		l0.6-0.1c-0.1-0.1-1.2,0-0.8-0.1l1-0.1l-0.1,0.1c0.3,0,0.7-0.1,1-0.1c-0.3,0.1-1,0.1-0.9,0.3c0.5,0,0.5,0.1,1,0.1
		c-0.1,0-0.2,0-0.2,0.1c1,0.1,0.9-0.2,1.2-0.3c1-0.3-1-0.2-0.8-0.4l2.8-0.1c-0.2,0.1-0.5,0.1-0.4,0.2c0.7,0.1,0,0.2,1,0.1
		c-0.1-0.3,1.2-0.2,1.9-0.3c0.3,0.1,0.4,0.1-0.3,0.1c0.1,0.2,1,0.1,1.4,0.1l0.7-0.1c-0.3-0.1-0.2-0.2,0.4-0.3l0,0
		c-1,0-2.5-0.2-3.2-0.1l0.2-0.1c-1.1-0.2-2.5,0.3-3,0c0.1-0.1-0.2,0-0.2-0.2l-0.8,0.2l0.2-0.1l-1.4,0l0,0l-1.7,0.4
		c0,0.1,0,0.1-0.2,0.2c-0.2,0-0.4,0-0.6,0l0,0v0c-0.4,0-0.6-0.1-1-0.2l1.3,0c0.1-0.1,0-0.3-0.7-0.4c0.3,0,0.4-0.1,0.1-0.1
		c0,0-0.9,0.1-0.6,0.2c-1.3,0.1-3.3-0.3-5.3-0.1c1.4-0.2-1.1-0.2,0.4-0.2c-1.1-0.2-0.9,0.2-2,0.2c-0.1-0.1,0.6,0,0.9-0.2
		c-1.8-0.1-3.1,0.4-4.8,0.3l-0.1-0.2L98.6,99.1z M95.1,99.4l-1,0.1l0.1,0l-1,0.1c0.6,0.1,1,0.3,0.2,0.4c0.1-0.1-0.2-0.2,0.1-0.2
		c-0.6-0.1-1.9-0.2-1.5,0.1c1.1-0.3,0.3,0.3,1.2,0.2c-0.5,0.2-1,0.1-1.4,0.2c0.5-0.1-0.1-0.3-0.8-0.4c-0.3,0-1.1,0-1.6,0.1
		c0.2,0.2-0.3,0.3,0.6,0.3c-0.3,0-0.8,0.1-1.3,0c0.2,0,0.6-0.1,0.5-0.1c-0.3-0.1-0.7-0.1-1-0.2l-0.5,0c0.1,0,0.1,0,0.1,0.1l-0.6,0.1
		c0.8-0.1,0.4,0.1,0.4,0.2c0-0.2-0.5,0-0.8,0l0.6,0.2c-0.3,0.1-1-0.1-0.8,0.1c1.2,0.1,1.7,0,2.8,0l-0.4-0.2c1.3-0.1,0.8,0.3,2.2,0.3
		c0.6-0.1,2.1,0,2.1-0.3c-0.2,0.1,0.9,0.3,1.4,0.1c0.5-0.3,2.1-0.3,1.6-0.4c-0.4,0-1,0.1-1.4,0l0.8-0.1L95,99.7
		C95.3,99.7,95.2,99.6,95.1,99.4z M76.3,97.7L76.3,97.7L76.3,97.7L76.3,97.7z"/>
	<path class="st1" d="M152.2,99.2c0.2-0.1,0.8-0.1,0.7-0.2C152.9,99.2,151.8,99,152.2,99.2z"/>
	<path class="st1" d="M152.9,99.3c0,0,0-0.1,0.3-0.1l-0.7,0L152.9,99.3z"/>
	<path class="st1" d="M153.6,100.4c0.4-0.1,0.6-0.2,1.2-0.2c0.2,0.4-1,0.1-1.3,0.5c1.1,0,1.4-0.3,2.3-0.3
		C155.5,100.2,153.7,100.1,153.6,100.4z"/>
	<polygon class="st1" points="153.2,100.9 153.8,100.8 153.7,100.8 153.1,100.9 	"/>
	<path class="st1" d="M139.9,97.6c-0.1-0.1-0.4,0-0.6,0C139.5,97.6,139.7,97.7,139.9,97.6z"/>
	<path class="st1" d="M20,97.5l-4.7,0.1L20,97.5z"/>
	<path class="st1" d="M124.5,98.4c1.2-0.1,1.8-0.3,3.1-0.4c-1.7-0.2-2.2,0.4-3.6,0.1L124.5,98.4z"/>
	<path class="st1" d="M124.9,97.4c0.2,0.2-1,0.3-0.8,0.4c0.8-0.1,0.4-0.2,1.2-0.2L124.9,97.4z"/>
	<polygon class="st1" points="130.6,101.1 130.2,101.2 130.5,101.2 	"/>
	<polygon class="st1" points="119.2,97.6 119.4,97.6 118.7,97.5 	"/>
	<path class="st1" d="M119.5,97.5l-0.1,0.1L119.5,97.5z"/>
	<polygon class="st1" points="130.1,101.6 130.7,101.6 130.9,101.5 	"/>
	<path class="st1" d="M125.1,100.4l0.5-0.1C125.5,100.3,124.8,100.2,125.1,100.4z"/>
	<polygon class="st1" points="115.4,97.5 114.8,97.6 114.8,97.6 115.5,97.6 	"/>
	<path class="st1" d="M121.2,101c0.3,0.2-1,0-0.3,0.2C121.5,101.2,121.3,101.1,121.2,101z"/>
	<path class="st1" d="M113.8,99.8c-0.1,0-0.2,0-0.3,0L113.8,99.8z"/>
	<path class="st1" d="M113.8,99.8c0.3,0,0.5,0.1,0.7,0C114.2,99.8,114,99.8,113.8,99.8z"/>
	<path class="st1" d="M110.7,99.9l0.2,0c-0.2,0.1-0.1,0.1,0.1,0c0.3,0,0.2-0.1,0.3-0.1l0.2-0.1l-0.2,0.1
		C110.9,99.8,110.6,99.8,110.7,99.9z"/>
	<path class="st1" d="M99.4,97c0.9,0.1,1.1,0.1,1.1,0.2c0.8,0,0.7-0.2,1.2-0.2C100.7,97,100.5,97,99.4,97z"/>
	<path class="st1" d="M101.7,97l0.3,0C101.9,97,101.8,97,101.7,97z"/>
	<polygon class="st1" points="114.3,101.3 113.7,101.5 114,101.5 	"/>
	<path class="st1" d="M98,96.9c0.2,0,0.4,0,0.6,0C98.6,96.9,97.9,96.9,98,96.9z"/>
	<path class="st1" d="M101.5,99.5c0.1,0.1,0.7,0,0.9,0.1C102,99.6,101.8,99.3,101.5,99.5z"/>
	<path class="st1" d="M95.5,97.5c0.2,0,0.4,0.1,0.3,0.2C96,97.6,96.3,97.4,95.5,97.5z"/>
	<polygon class="st1" points="99.8,99.5 100,99.6 100.6,99.5 	"/>
	<path class="st1" d="M102,101.5c0.7-0.2-1.1-0.4,0.1-0.5c-1.5-0.2,0.1,0.2-1,0.2C101.8,101.2,102.1,101.4,102,101.5z"/>
	<path class="st1" d="M101.1,101.2l-0.3,0L101.1,101.2z"/>
	<path class="st1" d="M91.4,100.2c0.1,0,0.2,0,0.2-0.1C91.6,100.1,91.5,100.1,91.4,100.2z"/>
	<path class="st1" d="M97.5,101.3l1-0.2c-0.7,0.2-2.4,0.1-2.3,0.4c0.6,0,1.2,0,1.5-0.1L97.5,101.3z"/>
	<path class="st1" d="M85.7,97l0.4-0.1l-0.6,0C85.7,96.9,85.4,97.1,85.7,97z"/>
	<path class="st1" d="M85.4,96.9l0.1,0C85.5,96.9,85.5,96.9,85.4,96.9z"/>
	<path class="st1" d="M93.4,100c0.3,0,0.6,0,0.9,0C94.2,100,93.3,99.9,93.4,100z"/>
	<polygon class="st1" points="82.5,97.3 83.3,97.3 82.5,97.3 	"/>
	<polygon class="st1" points="79.1,96.9 79,96.9 78.4,97 78.5,97 	"/>
	<path class="st1" d="M83.6,101.6c0.5,0,0.9-0.2,0.8-0.2l-1,0c0.2,0.2,0.3,0,0.8,0L83.6,101.6z"/>
	<path class="st1" d="M53.6,97.3c0.2-0.1,1.3,0,1.3,0.1c-0.1,0.1-0.7,0.1-0.4,0.2l0.8-0.3c1.1,0.2-0.8,0.4-1.4,0.5
		c1.1,0,1.5-0.2,2.7-0.2c-0.4,0-0.6-0.1-0.8-0.2c0-0.2,1.1-0.1,1.9-0.1c-0.5-0.1-0.2-0.2,0.2-0.3c0.1,0,0.1,0,0.1,0l0.1,0h-0.1
		c0,0,0,0-0.1-0.1c-0.7,0.1-1.2-0.1-1.6-0.1c0.4,0.4-1.5,0.1-2,0.2l-0.6,0l-0.2,0c0,0,0-0.1,0.4-0.2c-0.3,0.1-1.3,0-1.2,0.2l-2.3,0
		c-0.1,0-0.1,0-0.2-0.1c-0.1,0-0.1,0-0.1,0.1l-9.9,0l1.4,0.1c-0.8,0.2,0.8,0,0.6,0.3c-0.3,0.1-0.8,0.1-1.1,0
		c-0.1,0.1,0.3,0.2,0.3,0.3c1.3,0.1,1.4-0.4,2.7-0.3c-0.1,0.1-0.4,0.2,0.4,0.2l-0.2,0c1.3-0.1,1,0.3,1.8-0.1l0,0.2
		c0.6-0.1,1.7-0.1,2.4-0.2l0,0c1.8-0.2,1,0,3-0.1l-0.9,0.2c0.7,0.1,0.9-0.1,1.3-0.1c0,0,0.1,0.2-0.4,0.2l2.4-0.3
		C54.4,97.4,53.7,97.4,53.6,97.3z"/>
	<path class="st1" d="M56.7,97.6c0.1,0,0.3,0,0.5,0L56.7,97.6z"/>
	<path class="st1" d="M39.5,97l0.7,0C40,97,39.8,97,39.5,97z"/>
	<path class="st1" d="M60.2,97.2c-0.4-0.1,0.3-0.1,0.4-0.2l-1.5,0c0,0.1-0.1,0.2-0.1,0.2L60.2,97.2z"/>
	<path class="st1" d="M58.6,96.8c0,0.1-0.2,0.1-0.4,0.1h0.8C59.1,96.9,59,96.8,58.6,96.8z"/>
	<polygon class="st1" points="58.8,100.7 58.5,100.8 58.1,100.8 	"/>
	<path class="st1" d="M54.6,100.4c0.3,0.1,0.9,0,1.1,0C55,100.4,55.3,100.4,54.6,100.4z"/>
	<polygon class="st1" points="55.5,101.6 54.8,101.7 54.8,101.7 	"/>
	<path class="st1" d="M34.3,97.7l-0.3,0L34.3,97.7z"/>
	<path class="st1" d="M40.2,97.6c-1.6-0.2,1.1-0.2,0.5-0.5l-0.9,0.1l0.1-0.1l-1.1,0c0.2,0.1,0.4,0.1,0.3,0.3
		c-1.4-0.1-0.4-0.2-1.5-0.3l-1.6,0l0.1,0c-0.1,0-0.2,0-0.2,0l-5.4,0.1c-1,0.1,0.5,0.2-0.2,0.4c1.1,0,2.8,0.1,2.9-0.1
		c0,0-0.1,0.1,0.1,0.1l0.7-0.2l-0.6-0.1c0.7-0.2,2.8-0.2,3.2,0c-1.2,0.1-0.6,0.3-2.3,0.2c0.1,0.1,0.4,0.2,0,0.2
		C36.3,97.7,38.1,97.8,40.2,97.6z"/>
	<path class="st1" d="M20.3,97.7L20.3,97.7C20.3,97.7,20.3,97.7,20.3,97.7z"/>
	<path class="st1" d="M21,97.7l1-0.3l-1.5,0l-0.1,0.2c0.1,0,0.7-0.1,0.9-0.1L21,97.7z"/>
	<path class="st1" d="M23,97.3c-0.8,0.1-0.7,0.3-0.3,0.4c-0.7,0.1-0.4-0.2-0.9,0c0,0.2,0.9,0.1,1.1,0L23,97.3z"/>
	<polygon class="st1" points="28.8,97.4 28.6,97.5 29.1,97.5 	"/>
	<path class="st1" d="M28.6,97.5l-0.5,0c0,0.1,0.1,0.1,0.2,0.2L28.6,97.5z"/>
	<path class="st1" d="M26.6,97.4l-0.8,0L26.6,97.4z"/>
	<polygon class="st1" points="27.2,97.5 27.2,97.4 26.6,97.4 	"/>
	<path class="st1" d="M28,97.5c-0.1-0.1-0.2-0.3-1-0.3l0.2,0.2L28,97.5z"/>
	<polygon class="st1" points="50.5,101.4 49.9,101.5 50,101.5 50.6,101.4 	"/>
	<path class="st1" d="M47,101.3l-0.4,0.1C46.8,101.3,46.9,101.3,47,101.3z"/>
	<path class="st1" d="M44.4,102.3c-0.7-0.2,1-0.2-0.3-0.3c-0.1-0.1,0.5-0.3,1.1-0.3c0,0.1-0.6,0.1-0.2,0.2c0.4-0.2,0.6,0,0.4-0.2
		c0.7-0.1,0.8-0.3,1.3-0.4c-0.8,0.1-2.6-0.1-3.7,0.1c-0.6,0.2-0.2,0.6-0.2,0.9C42.8,102.5,44.3,102.5,44.4,102.3z"/>
	<path class="st1" d="M45.5,102.6c0.3,0,0.4,0,0.6,0C46.1,102.5,45.8,102.6,45.5,102.6z"/>
	<path class="st1" d="M37.9,100c-0.1,0.1-0.7,0.1-0.5,0.2l0.9-0.1C38,100.1,38,100.1,37.9,100z"/>
	<path class="st1" d="M38.7,100.1l-0.4,0C38.4,100.2,38.5,100.1,38.7,100.1z"/>
	<path class="st1" d="M37.8,100L37.8,100C37.9,100,37.9,100,37.8,100z"/>
	<path class="st1" d="M24.4,97.3c0-0.1-0.4,0-0.6,0C24,97.3,24.2,97.4,24.4,97.3z"/>
	<path class="st1" d="M9.1,97.7l-0.4-0.1C8.9,97.7,8.9,97.7,9.1,97.7z"/>
	<path class="st1" d="M3.6,100.3C3.6,100.3,3.5,100.3,3.6,100.3C3.5,100.3,3.6,100.3,3.6,100.3z"/>
	<path class="st1" d="M3.5,100.4c-0.2,0.1-1,0-1.3,0.1l0,0l-0.5,0.1C2.2,100.4,3.2,100.5,3.5,100.4z"/>
	<path class="st1" d="M202.6,99.7c-0.4,0-0.7-0.1-0.5-0.1c-0.7,0.1-0.7,0-0.8,0.2c-0.5,0.1-1,0-0.4-0.1l-1.3,0.2l0.8,0
		c-0.2,0.2-1.3-0.1-1.5,0.2l1.4,0l-0.1,0.1c0.3-0.1,1,0,1.2,0c0,0,0,0.1-0.3,0.1c1.7,0,0.5-0.4,1.9-0.4
		C202.8,99.7,202.7,99.7,202.6,99.7z"/>
	<path class="st1" d="M204,100.2l0.6-0.3l1,0.1c0-0.1,0.8-0.2,0.3-0.2c-0.1,0-0.3,0-0.5,0c0.1-0.2,1.4-0.1,1.1-0.3
		c-0.8,0-0.9,0-1.4,0.2c-0.7,0-1.3-0.1-1.6-0.1c-0.2,0-0.3,0.1-0.5,0.2l0.2,0l0,0.3c0.2-0.1,0.4,0,0.7,0l-1.2,0.3
		c0.4,0.3,1.6,0.1,2,0.2C204.1,100.3,205.2,100.4,204,100.2z"/>
	<path class="st1" d="M202.9,99.7L202.9,99.7L202.9,99.7z"/>
	<path class="st1" d="M292.2,98c0.3,0,0.3-0.1,0.4-0.1l-2.9,0c0.1,0.1,0.9,0.2,0.4,0.2c0.2,0.1,1,0,1.1-0.1l-0.2,0.1
		c0.7-0.2,1.1,0.1,0.7,0.2h0.1l1.8-0.6C292.9,97.8,293,98,292.2,98z"/>
	<path class="st1" d="M351,98.3c-0.4,0-0.4,0.1-0.4,0.1C350.7,98.4,350.9,98.4,351,98.3z"/>
	<path class="st1" d="M294,97.7l0.6-0.2C294.3,97.6,294.1,97.6,294,97.7z"/>
	<path class="st1" d="M290,100.4C290,100.4,290,100.4,290,100.4l0.3-0.1h0L290,100.4z"/>
	<path class="st1" d="M307,97l0.2,0L307,97z"/>
	<path class="st1" d="M282.3,101.4l1.3-0.2c-0.2,0.1,0.4,0.1,0.2,0.2c0.1,0,0.6,0,0.4-0.1l-0.3,0c0.7-0.2,0.3-0.3,1.4-0.5
		c-0.7-0.1-1,0-1.4,0.1l-0.3,0l-1.1,0.3L282.3,101.4z"/>
	<path class="st1" d="M333.2,99.7L333.2,99.7C333.2,99.7,333.2,99.7,333.2,99.7z"/>
	<path class="st1" d="M333.2,99.8L333.2,99.8C333.2,99.7,332.9,99.8,333.2,99.8z"/>
	<path class="st1" d="M293.8,97.9c0,0,0.1-0.1,0.2-0.1l-0.4,0.1L293.8,97.9z"/>
	<polygon class="st1" points="292.8,98.4 291.7,98.4 291.3,98.5 	"/>
	<path class="st1" d="M305.3,96.9c2.2,0-0.5,0.3,0.5,0.3c0.6,0,0.8-0.2,1.2-0.2c-1.8,0.1,0.2-0.4-1.5-0.4c0.3-0.2,1.3-0.3,1.9-0.2
		c0.7,0.2-0.6,0.2-0.8,0.4c0.7,0,0.6-0.1,0.9-0.2c1.1,0,2.3-0.3,3,0c0.8,0,0.8-0.2,1.2-0.3c0.1-0.2-1.2-0.1-1.5-0.3
		c0.1,0,0.2,0.1,0.1,0.1l-0.7-0.1c0.7,0.1-0.1,0.2-0.4,0.3c-0.3,0-0.8,0-0.7-0.1l0.4-0.1c-0.5-0.1-1.1,0.2-1.6,0
		c0,0,0.2-0.1,0.2-0.1c-0.6,0.2-1.2,0.2-2.1,0.3l0.5-0.2c-0.7,0.3-2.3,0.2-3.4,0c0.1,0,0.3,0.1,0.2,0.1c-0.7,0.1-1.1-0.1-0.8-0.2
		c-0.6,0.2-2.4-0.2-3.3,0.1l-4,1.2c0.1,0,0.3-0.1,0.5-0.1c0.4,0.2,0.6,0.2-0.1,0.4c0.6-0.1,0.4-0.3,1.3-0.3
		c-0.4,0.1-0.5,0.4,0.4,0.4c2.2-0.2,3.7-0.8,5.8-1.1c0.1,0.2,1.7,0.1,2.5,0.2c-0.3,0.2-0.9,0.2-1.5,0.3l1.5,0L305.3,96.9z"/>
	<path class="st1" d="M300.1,97.5l0.2,0C300.2,97.5,300.2,97.5,300.1,97.5z"/>
	<path class="st1" d="M303.3,97.2C303.3,97.2,303.3,97.2,303.3,97.2l0.2,0L303.3,97.2z"/>
	<path class="st1" d="M294.3,98.2l-0.4,0.1L294.3,98.2C294.3,98.3,294.3,98.3,294.3,98.2z"/>
	<path class="st1" d="M293.8,97.9L293.8,97.9L293.8,97.9C293.7,97.9,293.8,97.9,293.8,97.9z"/>
	<path class="st1" d="M313.7,98.4l0.2,0C313.8,98.4,313.8,98.4,313.7,98.4z"/>
	<path class="st1" d="M307.7,97.2c-0.8,0-0.1,0.2-1.2,0.2l0.3,0c-0.8,0.1-2.2,0.1-3.1,0.1c0.1-0.1-0.6-0.1-0.5-0.3
		c-0.6,0-1.3,0.1-1.6,0.2c-0.4-0.1-1,0.1-1.5,0c0.2,0.1-0.7,0.3,0.5,0.2c-0.1,0,0,0-0.1,0c0.8,0.1,1.1-0.1,1.8-0.1
		c0.4,0.1-0.7,0.1-0.3,0.2c0.8-0.1,2.6,0.1,2.6-0.2c0.6,0,0.7,0.1,0.9,0.1c1-0.4,3.6,0.2,3.6-0.3c-0.4,0-0.9,0-1.5,0.1L307.7,97.2z"
		/>
	<path class="st1" d="M295.6,98.2l0.2,0L295.6,98.2z"/>
	<path class="st1" d="M286.5,96.8c-0.1,0.1-0.2,0.1,0.3,0.1c0.9,0.1,1.4-0.2,2-0.2l-0.2,0c0.6,0.1,1.4,0.1,1.8-0.1
		c0.5,0.3-1.7,0.1-0.8,0.3c-0.7-0.1-1.6,0.1-2.1,0.1c0.9,0.1,1.6,0.3,1.4,0.5c1.8-0.2,0-0.6,1.6-0.7l1.1,0.1l0.4-0.3
		c0.7,0-0.4,0.2,0.6,0.2c0.3-0.1,0.9,0,1.2-0.1c0,0.1,0,0.1,0.5,0.1c0,0,0-0.1,0.4-0.1c0.3,0.3-1.1,0.1-0.6,0.3c1.3,0,0.7-0.3,1-0.4
		c0,0-0.1,0-0.3,0c0-0.1,0.5,0,0.5-0.1c-0.2,0-0.4,0-0.6,0c0.4-0.1-0.6-0.2-0.9-0.2c-0.8,0.1-2.5,0.1-3.6,0.1c0.1,0,0.3,0,0.2-0.1
		c-1.6,0-2.3-0.1-4.1,0l-0.3,0.3C285.8,96.9,286.2,96.9,286.5,96.8z M287.4,96.8l-0.6,0C287,96.8,287.2,96.8,287.4,96.8z"/>
	<path class="st1" d="M212.3,100.2l-0.2,0C212.1,100.2,212.2,100.2,212.3,100.2z"/>
	<path class="st1" d="M264.4,100.3l-0.3,0L264.4,100.3z"/>
	<path class="st1" d="M256.7,101.2l-0.5,0.1C256.4,101.3,256.6,101.3,256.7,101.2z"/>
	<polygon class="st1" points="216.3,100.2 216.3,100.2 216.4,100.2 	"/>
	<path class="st1" d="M241.4,100.5c-0.1,0-0.2,0-0.3-0.1C241.2,100.5,241.3,100.5,241.4,100.5z"/>
	<polygon class="st1" points="256.8,101.2 256.8,101.2 256.7,101.2 	"/>
	<path class="st1" d="M267.7,101.1l0.2,0C267.9,101.1,267.8,101.1,267.7,101.1z"/>
	<path class="st1" d="M267.3,100.3l0.2,0L267.3,100.3z"/>
	<path class="st1" d="M279,100.9l0.5,0C279.3,100.8,279.1,100.8,279,100.9z"/>
	<path class="st1" d="M268.5,100.5L268.5,100.5C268.5,100.5,268.4,100.5,268.5,100.5z"/>
	<polygon class="st1" points="209.3,99.3 209.4,99.3 209.4,99.3 	"/>
	<path class="st1" d="M208.2,99.7l-0.4,0C208,99.8,208.1,99.7,208.2,99.7z"/>
	<path class="st1" d="M234.8,100.1c-0.1,0-0.4-0.1-0.3-0.1C234.3,100,234.3,100.2,234.8,100.1z"/>
	<path class="st1" d="M211.6,97.5c-0.1,0-0.2,0.1-0.3,0.1C211.5,97.6,211.6,97.5,211.6,97.5z"/>
	<path class="st1" d="M211.3,97.6l-0.3,0.1L211.3,97.6z"/>
	<path class="st1" d="M237.9,97.7c0,0,0.1,0,0.1,0C238,97.7,237.9,97.7,237.9,97.7z"/>
	<path class="st1" d="M207.5,99.7c-0.1,0.1-1.8,0.2-0.4,0.3c-0.1,0.2-0.9,0.1-1.3,0.2c0.3,0.1-0.1,0.1-0.1,0.2
		c0.2,0,0.4-0.1,0.7-0.1c0.1,0.1-0.3,0.2-0.7,0.1c0.5,0.1-0.6,0.2,0.1,0.3c1.4-0.1,2.4-0.2,3.4-0.5c-0.8,0-1.7,0.1-2.4,0l0.3-0.2
		c0.8,0.2,1.2,0,2,0.1l-1.7-0.1c-0.8-0.1-0.3-0.2,0.4-0.2C207.7,99.7,207.5,99.7,207.5,99.7z"/>
	<polygon class="st1" points="208.6,98.1 208.6,98.1 208.5,98.1 	"/>
	<path class="st1" d="M278.9,97.1l0.1-0.1C279,97.1,278.9,97.1,278.9,97.1z"/>
	<path class="st1" d="M209.6,99L209.6,99C209.6,99,209.6,99,209.6,99z"/>
	<path class="st1" d="M275.4,97.1L275.4,97.1C275.4,97.1,275.4,97.1,275.4,97.1z"/>
	<path class="st1" d="M274.4,101.1C274.4,101.1,274.4,101.1,274.4,101.1C274.5,101.1,274.5,101.1,274.4,101.1z"/>
	<path class="st1" d="M275.4,97.2C275.4,97.1,275.4,97.1,275.4,97.2C275.4,97.1,275.4,97.1,275.4,97.2z"/>
	<path class="st1" d="M258.2,97.8c0,0,0.1,0,0.1,0.1C258.3,97.9,258.3,97.8,258.2,97.8z"/>
	<path class="st1" d="M261.6,98.1L261.6,98.1L261.6,98.1z"/>
	<path class="st1" d="M235.6,100.9l0.4,0C235.9,100.9,235.7,100.9,235.6,100.9z"/>
	<path class="st1" d="M275.4,97.1c0,0,0.1,0,0.2-0.1C275.5,97.1,275.4,97.1,275.4,97.1z"/>
	<polygon class="st1" points="253,98.7 253.1,98.7 253,98.7 	"/>
	<path class="st1" d="M251.2,98.6c0.1,0,0.1,0,0.1-0.1c-0.6,0.1-1.8,0-1.9,0.2c0.2,0,1.3,0.1,1.1,0.2c0.4-0.1,1.1,0.1,1.3,0.1
		c-0.7-0.1-0.1-0.2,0.4-0.2c0.4,0.1-0.1,0.2,0.3,0.2l1,0l-0.9,0l0.3-0.2l-0.1,0C251.4,98.9,252.7,98.5,251.2,98.6z"/>
	<path class="st1" d="M251.3,98.6c0.1,0,0.2,0,0.2,0C251.4,98.5,251.4,98.5,251.3,98.6z"/>
	<path class="st1" d="M245.1,98.2l-0.3,0L245.1,98.2z"/>
	<path class="st1" d="M290.6,98.5c0-0.1-0.9-0.2-0.9,0l0.8,0L290.6,98.5z"/>
	<path class="st1" d="M228.2,99.1h0.3l0.1,0C228.5,99,228.3,99.1,228.2,99.1z"/>
	<path class="st1" d="M250.2,99c0.2,0,0.2,0,0.3-0.1C250.4,99,250.3,99,250.2,99z"/>
	<path class="st1" d="M228.2,98.7c-0.1,0-0.3-0.1-0.3-0.2c-0.3,0-0.4,0.1-0.7,0.1C227.4,98.7,227.8,98.7,228.2,98.7z"/>
	<path class="st1" d="M227.1,98.7L227.1,98.7L227.1,98.7z"/>
	<path class="st1" d="M290.5,98.5l-0.3,0.1l0.2,0c-0.1,0.2-0.8,0.4-1.7,0.3l1.2,0.1l-0.2,0.1l-2.8-0.1c0.3,0,0.7-0.1,1-0.1
		c-0.9-0.2-2.4,0.1-2.8-0.2c1.4-0.3,2.1-0.1,3.7-0.2c0.8,0.2-1,0.1-1,0.3l0.9,0.1c-0.1-0.1,1.7-0.1,1.2-0.4
		c-1.9-0.1-3.8-0.1-5.4-0.1l1.6-1.5c0,0,0-0.1,0.1-0.1c-1.6,0-0.8,0.6-1.2,0.6c-0.4,0-0.7,0.1-1,0l0.2-0.1c-1,0.1-0.3,0.2-1.2,0.2
		c-0.7,0.1,0.6,0,0.2,0.1c-1,0-0.6,0.4-2.1,0.2c0.1-0.1-0.2-0.2,0.7-0.3l-0.9-0.1c1-0.1,0.4-0.1,1.4-0.1c0.5-0.2,0.4-0.3,0.8-0.5
		c-0.4,0.1-0.3,0.2-0.9,0.2c-0.7-0.1,0.1-0.1,0.2-0.2c-0.9,0.2-1-0.2-1.9,0c0.2,0.2,0,0.2,0.6,0.4c-0.6,0.1-1.3-0.1-1.3-0.3
		l-0.1,0.2c-0.1,0-0.6,0-0.6-0.1l-0.2,0.1c0.4,0.1,0.8,0.2,1.5,0.1c-0.3,0.1,0.4,0.3-0.6,0.4c-0.4,0-0.1-0.1-0.1-0.2
		c-2.2,0.1-2.2-0.3-3.9-0.2c0.4-0.1,1.5,0,2.3-0.1c-0.5-0.2-1.1,0.1-1.5,0c0.4-0.1,0.5-0.2,0-0.2l-0.2,0.1c-0.3,0-0.8,0-0.9,0
		c0,0,0.1,0.1,0.4,0.1c-0.8,0.2-2.2,0.2-3.5,0.1c0.1-0.2,1.9-0.1,0.9-0.3c-0.6,0-1,0.3-2,0.2c0.4-0.1-0.4-0.1-0.4-0.2l-1.3,0.3
		c-0.6,0-1.4,0-2,0c0.2,0,0.5,0,0.8,0c-0.9,0.3-1.7-0.1-2.8,0l0.5-0.1c-0.9-0.1-1.5,0-2.2,0.1l0-0.2c-0.1,0.2-1.6,0.3-1.9,0.4
		c2.1-0.2,1.8,0.2,3.8,0c-0.8,0.2-1.3,0.3-2.1,0.5c-0.3,0-0.4-0.1-0.5-0.1c-0.3,0.1-0.3,0.3-0.8,0.3l-0.2-0.1
		c-1.4-0.1-1.3,0.4-2.6,0.3c-0.3-0.2,1.2-0.3,2-0.4c-0.6-0.2,1.3-0.1,0.6-0.4l-0.4,0.1c-0.4,0-0.4-0.1-0.1-0.1c-0.5,0-0.4,0-0.6,0.1
		c-2.1,0,0.2-0.3-1.9-0.4c0.2-0.1,0.8-0.1,0.7-0.2l1.1,0.1l0-0.2c-1.4,0-2.2,0.2-2.9,0.5c1.3-0.2,0.1,0.2,0.8,0.3
		c-0.2,0.1-0.5,0-0.6,0c-0.1,0.1-0.7,0.1-0.7,0.2c-0.3-0.4-3.1-0.4-2.4-0.9c-0.8-0.1-3.2,0.1-4.9,0.1l0.5-0.1
		c-1.8-0.4-1.6,0.3-2.6,0.4c0.9-0.2-0.8-0.2-1.2-0.3c-0.8,0.1-1.5,0.4-2.6,0.4c-0.2-0.2-0.3-0.5-1-0.5l-0.5,0.1
		c-0.7,0-1.7,0.1-2.2,0l0.1,0c-0.8-0.1-0.9,0.2-0.2,0.2l-0.8,0.1l0-0.1c-1,0.1-2,0.4-3.6,0.4c0.4-0.2-1.2-0.3,0.2-0.4
		c-0.4,0.1,0.2,0.2,0.3,0.2c0.5,0,1-0.2,1.3-0.2c-0.2-0.1,0-0.3,0.3-0.5c-1.1,0.3-4.1,0-4.3,0.5c-1.3,0-3,0.1-4.5,0
		c0.1,0,0.2,0.1,0.1,0.1l-1.3-0.2l0.3,0l-0.9-0.1c-0.1-0.1,0.2-0.1,0.6-0.2c0.2,0,0.4,0,0.2,0.1c0.9-0.2-0.8-0.1-0.2-0.2
		c0.2,0,0.5,0,0.7,0c-1-0.1-1.5,0.2-2.2-0.1c-0.5,0.2-1.5,0.3-2.5,0.2c0.4-0.1-1,0-0.6-0.2c-0.4,0.1-1.2,0-1.4,0.1
		c0.1,0,0.5,0,0.8,0c-0.4,0.1-0.4,0.2-0.9,0.2c-0.1,0,0-0.1,0-0.1c-0.6,0.1-0.2,0.4-1.3,0.4c-2.9,0.1,0.4-0.5,0-0.5
		c-0.1,0.1-1.4,0.2-1.9,0.1l0.1-0.1c-0.3,0-0.7,0.1-1,0c-0.2,0.2-0.5,0.3-0.7,0.4l-1.3,0l0.3-0.1c-0.3,0-0.6,0-0.8,0.1
		c-0.1-0.1,0.3-0.1,0.7-0.2c-0.2-0.1-0.5-0.1-0.8,0l0.2,0c-0.3,0.1-1.5,0.3-0.6,0.3c-0.7,0.1-0.9-0.1-1.4-0.1c0-0.1,0.4-0.1,0.2-0.2
		c-0.5,0-0.8,0-1.2,0c0.4,0-0.1,0.1,0.5,0.2c-0.2,0.1-0.8,0.1-0.8,0.1c0.2,0,0.3-0.1,0.7,0c-0.6,0.1-1.3,0.1-2,0
		c0,0,0.1-0.1,0.2-0.1c-0.9,0.2-2.2,0.1-2.7,0.4l0.3,0c0.2-0.1,0.6-0.1,0.8,0c-0.6,0.1,0.5,0.2-0.2,0.3c-0.9,0.1-1.8-0.1-2.3,0.1
		c0.9,0,2.1,0.2,2.5,0l-0.6,0l1.3-0.3c0,0.1,1.2-0.1,1.1,0.1l-1.2,0.1c0.1,0.1,1.2,0,1.7,0.1l-0.6-0.1c1.1-0.1,2.4-0.1,3.5-0.2
		c-0.8,0.1,1.1,0.1,0.4,0.3c-0.3,0.1-0.7-0.1-0.6,0c-0.1,0.2,0.6,0,0.8,0.2c0.1-0.1,1.2-0.2,0.5-0.3c0.3,0.1,1.1-0.1,1.6,0
		c-0.1-0.2,0.9-0.1,1-0.2c0.2,0,0.4,0.1,0.5,0.1l-1.5,0.2l0,0c-0.2,0-0.6,0-0.5,0l0,0.1l-2.8,0.4l0.3-0.1c-0.8,0.2-1.7,0-2.5,0.2
		c0,0,0.1,0,0-0.1c-1.1,0-1.5,0.3-2.3,0.1l0.1-0.1c-0.1,0-0.6,0.1-0.5,0.2c0.7,0,0.8-0.1,1.5-0.1c-0.3,0.1-0.8,0.2-1.2,0.2l0,0.2
		c-0.5,0.2-1.1-0.1-1.6,0.1l0.6,0.1c0,0-0.1,0-0.1,0c0.3,0,0.5,0,0.6-0.1c0.9-0.1,1.4,0.2,1.6,0.3c0.4,0.1-0.2,0.2-0.1,0.3
		c0.7,0,0.7-0.2,1.4-0.3c0.2,0,0.1,0.1,0,0.1l0.5-0.1c0,0.1,1.2,0.1,0.5,0.2l-0.5,0c1,0.1,2.7,0.3,2.6,0.5c0.5,0,0.4-0.1,1.3,0
		c0.4-0.1,0-0.3,0.9-0.4l-0.7-0.1l-0.4,0.1l0.8,0c-0.5,0.1-0.4,0.1-0.5,0.3c-1.2,0-1.5-0.2-2.1-0.3c0.4-0.1,1-0.1,0.8-0.3
		c0.6,0.2,0.7-0.1,1.4,0l-0.1,0c0.6-0.1,0.6,0,1.1-0.1c0,0,0,0.1,0.1,0.1c1-0.1-0.3-0.1,0.7-0.3c0.9,0,0.3,0.3,0.5,0.4
		c-1.5,0.2,0,0.3-1.6,0.5c0,0.2,0.6,0.3,1.5,0.2c-0.6-0.1,0.4-0.3-0.4-0.5c1.3-0.1,1.2-0.6,2.6-0.4l0,0l0.6-0.2l0.8,0.1
		c-0.5,0.2-1.1,0.1-1.5,0.3c1,0.2,1.3-0.2,2.5-0.2c1,0.3-1.2,0.2-1.2,0.4c0.2-0.1,0.9,0.1,0.8,0.1c-1.1-0.1-0.7,0.1-1.9,0
		c0.6-0.1-0.1-0.1,0-0.2c-0.2,0.1-1.3,0.1-2.1,0.1c-0.2,0.2,0.7,0.1,1.2,0.2c0.9-0.2,1.9,0.1,2.7-0.1c1,0,0.1,0.2,0.1,0.2
		c0.9,0.1,0.4-0.1,0.7-0.2c1.4-0.1,1.5,0.2,2.5,0.2c0.8-0.2,2.8-0.1,4.3-0.1c-0.2,0.1,0,0.1,0.1,0.2c0.8-0.3,0.5-0.2,1.6-0.4
		l-0.9-0.1c0.7,0,1.3-0.3,1.9-0.1c-0.9-0.3,1.1-0.2,1.7-0.3c0.7,0.1,1.5-0.1,1.8,0.1l-0.1,0l1.1,0l-0.1,0.3c0.7,0.1,1.6-0.1,1.4-0.2
		c0.8,0.1,0.3,0.1,0.4,0.2c-0.4,0.1-1.4,0.3-1.6,0.1c0.1,0,0.2,0,0.3,0c-2-0.1-0.7,0.3-1.6,0.4c0.5,0,0.9,0.2,1.4,0.1
		c0.3,0,1.3-0.1,1.8-0.2c-0.7,0.1-1.1,0-1.7-0.1c0.5,0,0.6-0.1,1,0l-0.1,0l0.5-0.1c0.1,0.2,1.4,0.1,0.6,0.3c0.7,0,0.2-0.1,0.9-0.2
		l-1.3-0.1l0-0.2c0.5-0.1,0.6,0,1.1,0l0-0.2l0.9,0.2c-0.1-0.1,0.6-0.1,0.8-0.1c0.5,0.1,0.2,0.4,1,0.2l-0.1,0
		c0.5-0.1,0.8-0.1,1.5-0.1c0,0-0.2,0.1-0.3,0.1c1,0.1,2.6-0.2,3,0.1c-0.1,0.2-0.5,0.1-0.5,0.2c-1.5-0.2-1.1,0.3-2.8,0.2
		c-0.1-0.4-1.5,0.2-1.8-0.2c0.7,0,1.6-0.2,1.5-0.2c-0.6,0-1.6,0-2,0c0.4,0.1,0.3,0.3,0,0.5c1-0.1,2.9,0.2,4.4,0.2l-0.2-0.2
		c1.3-0.2-0.2,0.2,0.8,0.2l0.4-0.2l0.1,0l0.7-0.2c-0.5,0-0.3,0.2-0.8,0.1c-0.5-0.1,0-0.2,0.2-0.3c0.3,0.1,1.6,0,0.8,0.2l1.3-0.2
		c0,0.1-0.3,0.1-0.4,0.2l1,0l0,0c0.8-0.1,1.9-0.1,2.5-0.3c-1.3-0.2,0.6-0.2,0.5-0.3c0.5,0,0.6,0.4-0.4,0.6c-0.3-0.1-1,0-1.5,0
		c0.7,0.1,0.9,0,1.4,0c-0.4,0.1,0.7,0.1,0.7,0.2c-0.1,0.1-0.3,0.3-0.9,0.2c-1,0-0.1-0.2-0.4-0.2c-0.3-0.2-1.4,0-2,0
		c-0.1,0,0.1,0,0.2-0.1c-0.5,0-1.6,0-1.7,0.2l1.3-0.1c0.3,0.1-0.4,0.1,0,0.2c0.3,0,0.6-0.1,1,0l-0.1,0.1c0.8,0.1,2,0.1,2.9,0
		c0.2-0.3,0.7-0.6,1.1-0.9c1.3,0,2.8,0,4.2,0.1c-0.3,0.2-1.2,0.2-2.2,0.2l0.4-0.1c-0.8,0-1.1,0.1-1.4,0.2c0,0,0-0.1-0.2-0.1
		c-0.7,0-1.1,0.2-0.7,0.4l0.2-0.1l0.5,0.2c0.2-0.3,1.6-0.1,2.4-0.3c-0.5,0.1-1,0.4-1.7,0.2l0.1,0.2c-0.6,0-1.1-0.1-1.4,0l0.7,0
		l0,0.1c0.5,0,1.1-0.2,1.6-0.1c0.4-0.1,0.8-0.3,1.9-0.2l0,0c0.7-0.3,2.1,0.2,2.6,0.1c0.3-0.3-1.2-0.1-1.6-0.3c0.5-0.1,1,0,0.6-0.1
		c1.1-0.1,0.6,0.3,1.5,0.1l-0.5-0.1c0.4-0.1,1.1-0.1,1.5-0.2c0.1-0.2-0.7,0-1.4-0.1l0.3-0.2l-1.5,0.2c-0.5,0.3,0,0.3-1,0.5
		c-0.5-0.2-0.8-0.4-0.6-0.6c0.4,0.1,1.2,0,1.1,0.2c0.4-0.2,1.7-0.3,1.4-0.5l0.2,0c0.5,0.2,1.3,0.3,2.7,0.4c0.3,0,0.3-0.1,0.3-0.3
		c0.3,0,0.6,0.1,0.9,0.1c-0.2,0.1-0.4,0.2-0.8,0.2l2.2,0.1l-0.2,0.1l0.9-0.1c-0.5,0-1.2,0-1.1-0.2c1-0.1,1.5,0.1,2.4-0.2
		c0,0.3,0.3,0.4,0,0.6c-0.1,0-0.1,0-0.1,0c-0.3,0.2-1,0.4-1.5,0.4c1.8,0.1,1.3,0,2.9,0.1c0.1,0.2-1.5,0.2-1.1,0.3l-1.5-0.1
		c0.3,0,0.3-0.1,0.4-0.1c-1,0.1-1.4,0-2.2,0.2c-0.5-0.1,0.8-0.1,0.2-0.2c0.5,0,0.9-0.2,1.1-0.4c-1.2-0.1-0.7,0.2-1.7,0.3l-0.8-0.2
		c-0.5,0,0.1,0.1,0.2,0.2c-0.6,0-0.8-0.1-1.2-0.1c0.1,0,0.4,0.1,0.3,0.2c-0.7-0.1-1.4,0-2-0.3c0.4,0.1-0.4,0.3-0.7,0.4l1.3,0.3
		c1.7-0.1,2.7,0,4.5-0.1l-0.1,0.1c2.9,0.3,2.4-0.5,4.8-0.5c0.1,0.2,1.1,0,1,0.2c-0.7,0-0.6,0.1-0.4,0.2c0.4-0.1,0.7-0.3,1.5-0.2
		c-0.3,0.1,0.4,0.2-0.4,0.3c1.1,0.1,1.7,0,2.3-0.2c1.8-0.2,0.5,0.3,2.4,0.1l-0.3,0.1l1.1,0l-0.4-0.1l1.3-0.1
		c0.8-0.1-0.3-0.2-0.2-0.3l-0.3,0.2c-0.5,0-1.3,0.1-1.4,0c0.9,0,0.7-0.2,1-0.2l-0.8,0.1l-0.3-0.1c-0.8,0-1.5,0-2,0.1
		c0.3,0.1,0.6-0.1,0.9,0c-0.4,0.2-1.4,0.3-2.4,0.3c0-0.1-0.3-0.1-0.2-0.1c0,0,0.2,0,0.3,0c-0.1-0.1,0.5-0.2-0.5-0.2
		c0.3-0.2,1-0.4,1-0.5c0.5,0,1.3-0.1,1.8,0l0,0c0.5,0,1.5-0.1,1.6,0c0.3,0,1.1-0.1,0.3-0.2l1.4-0.1c-0.2,0.3,1.1,0.4-0.3,0.6
		l1.3-0.1l0,0c0,0-0.1,0-0.1,0.1c-0.2,0-0.3,0-0.3-0.1c-0.5,0.2,0.2,0.3,1,0.3l0.2-0.2c0.6,0.1,1,0.2,1.9,0.2l2-0.6l0.6,0
		c0.3,0.1,1.1,0,0.8,0.2c0.1,0.1-0.2,0.1-0.6,0.1c-0.1,0,0,0,0-0.1c-0.1,0.1-0.2,0.2,0.3,0.3c-0.5,0-0.5,0-0.9,0l0.5,0
		c-0.7,0-1.8,0.3-1.8,0.4c0.2-0.2,0.7,0,1.1,0c-0.3,0-0.9,0.1-0.4,0.2c0.2-0.1,1.5-0.2,0.5-0.3c0.4-0.1,0.9-0.1,1.4-0.1
		c-0.5,0.1-0.2,0.2-0.3,0.3c0.5-0.1,0.4-0.3,0.5-0.3c1.3,0.2,1.9,0.5,3.4,0.4c0.2,0-0.9,0.1-0.8-0.1c1.1-0.2,1.4,0.2,2.4,0.1
		l-0.3-0.2c0.3,0,1-0.1,1.4-0.1c0.1,0.1,1.1,0.2,0.4,0.3c1.6,0.1,1.4-0.5,3.3-0.4c-0.9-0.1-1,0-1.6,0c0.7-0.1,0.1-0.1,0.2-0.3
		c0.4,0.1,1.8,0,0.9,0.2c0.6,0,1.7,0,2-0.1l-0.5-0.1c0.8,0,1.7-0.1,2-0.3c-1,0-1,0.3-2.3,0.3c-1.4-0.2,0.3-0.2-0.6-0.4l-1,0.2l0.5,0
		c-0.2,0.2-1.6,0-1.4,0.3c-1-0.2-1.3-0.1-2.5-0.3c-0.3,0.1,0.1,0.1,0.5,0.1c-0.6,0-0.6,0.3-1.4,0.1c-0.4,0-0.1,0.2,0.6,0.2
		c-0.6,0-1.1,0-1.8,0l0.6,0.2l-0.7,0l0.6,0.1c-1.3,0-2.8,0-3.4-0.2c1.1-0.2,3-0.1,3.6-0.4c-0.3-0.1-0.9,0.2-1.2,0l-0.3,0.2
		c-0.4,0.1-1.3,0.1-1.4,0c1.1-0.1,1.4-0.3,1.9-0.4c0,0,0.1,0,0.3-0.1h0h0c0.3,0,0.8,0,1.1,0c0.4,0,0.1,0.1,0.1,0.2
		c1.3,0.2,2.2-0.3,3.6-0.2c0,0.1,1.1,0.2,0.7,0.3c0.8,0,1.2-0.1,1.8-0.2c0.1,0.1,1.2,0,0.8,0.2l0.7-0.2c0.5,0.1,1.5,0,1.7,0.1
		c0.6,0,0.2-0.2,0.9-0.2c0,0,0,0.1-0.1,0c0.3,0.1,1.2,0.1,1.5,0c-0.5,0-0.1,0-0.8-0.1c0-0.1,0.7-0.2,1.5-0.1c-1,0.2,0.8,0.2,0.3,0.3
		c1.6,0,2.5-0.3,3.8-0.5c1.5,0,3.5,0.1,4.7-0.1l-0.2,0l0.7-0.1c0.4,0,0,0.2,0.7,0.2c-0.2,0.2-1.1,0-1.8,0.2c1.1,0.2-1,0.2-0.3,0.4
		c0.4-0.4,2.4-0.1,3.4-0.3c1,0-0.4,0.2,0,0.2l0.3-0.1c0.4,0,0.5,0.1,0.5,0.2c1,0.1,2.2,0,3-0.2c-1.1,0.1,0.4-0.2-0.7-0.2
		c0.3-0.1,1-0.1,1.7-0.1c-0.6,0.1,0.9,0.3-0.6,0.2c0.2,0.2,0.7,0,1.4,0c-0.3,0.1-1.1,0.2-1,0.2c1-0.3,3.1,0.2,3.5,0
		c0.7-0.2,1.8-0.3,2.6-0.5c0.9,0.2,1.8,0.1,2.8,0.1l-0.2,0.1c0.5,0,1.4,0,2.2,0l0.2,0.1c0.5,0,1.6-0.1,2.4-0.1
		c0-0.1-0.8-0.1-0.4-0.2c-0.4,0-0.8,0-0.6,0.1c-0.4,0-0.4-0.1-0.8-0.2l1.6-0.1c0.1,0,0.2,0,0.2,0l0.1-0.2c0.4,0,0.5,0,0.5,0.1
		c0.9-0.1,1.2-0.3,2.2-0.2c-0.4,0.1-0.7,0.2-1.3,0.2h1.1c-0.5,0.2-2.4,0.1-2.1,0.4c1.2-0.1,3-0.3,4-0.4c0.6,0.2,1.4,0,2.3,0
		c0.1,0,0.4,0.1,0.2,0.2l-0.3,0c1.2,0,2.6-0.1,3.7-0.2l0.5,0.2c1.9,0.1-0.3-0.3,1.6-0.4c0.5,0.2,2.3,0.1,2.4,0.3
		c0.4,0,0.5,0,0.6-0.1c-0.3,0-1,0-0.6-0.1c0.6-0.1,1,0,1.5,0c0,0-0.4,0.1-0.2,0.1c1.3-0.1,3.6-0.1,4.8-0.4c-0.5,0-0.5,0.2-1.1,0.1
		c0-0.1,0.3-0.1,0.5-0.1c-0.1-0.2-0.6,0.1-1.3,0l1.1-0.2l-0.6-0.1l2.4-0.4c-2-0.1-2.9,0.5-4.5,0.3c0.3,0,0-0.1-0.1-0.1
		c-0.5,0.1-1.1,0.1-1.4,0.2l-0.8,0c0-0.1,0.3-0.3,1.2-0.3c-2.9,0-5.2,0.4-8.1,0.3c-0.1,0,0.4,0,0.2-0.1c-0.4,0.1-1,0.1-1,0.2
		c0,0,0.1-0.1,0.4-0.1c-1.5,0.1-2.3-0.2-3.3-0.1c-0.1-0.1,0.7-0.1,0.6-0.1c-1.5-0.1-2.3,0.3-3.8,0.3c0.5-0.2-0.3-0.2-0.7-0.3
		c-1.2,0.1-3.9,0.2-5.7,0.3c0.5-0.4-2.1,0-2.2-0.3c-0.4,0-1.1,0.1-1.1,0.2c0.2-0.1,0.8,0,0.7,0.1c-0.6,0-1.5,0-1.6,0.2l-0.8-0.2
		c0,0.1-0.3,0.3-0.7,0.3c-0.9-0.3,0.1,0.2-1.2,0.1c0.3-0.1,0.6-0.2,0.7-0.3c-0.6,0-0.6,0-1,0.1c-0.1-0.1,0.4-0.3,0.9-0.3l-0.8-0.1
		c-0.8,0.2-2.2,0.5-3.5,0.4c0.2-0.1,0.6-0.1,0.3-0.3c-0.5,0-1.3,0.3-2,0.2c0.1,0,0,0,0.1,0c-1.3,0.2-1,0-2.1-0.1c0,0,0,0,0.1-0.1
		l-0.7,0.1c-1.5,0.3-1.6-0.2-2.5-0.3l0.2,0c-0.6-0.2-2.3,0-2.8-0.1c0.6,0.1,0.2,0.1,0.7,0.3c0.6,0,0.4-0.3,1.3-0.2
		c-0.1,0.2-1.3,0.3-1.5,0.4c-0.5,0-0.9-0.3-0.9-0.4c-1.3,0-2-0.1-3.6,0c-0.6,0.1-1,0.5-2.3,0.3l0.1-0.1c0,0.1-0.6,0-0.9,0.1
		c0.5,0.2-0.6,0.1,0,0.3c-0.8,0-0.9-0.3-1-0.4c-0.5,0.3-1.5-0.1-2.7,0c0.2-0.1,1.5-0.1,1-0.3l-1.5,0.3l0.7,0c-1.1,0.2-1.5,0-2.1-0.1
		c-0.1-0.1,0.3-0.1,0.6-0.1c-0.4,0-0.9,0-1.4,0.1c-0.4,0.1-1.6,0.2-2,0.3l-0.2,0c0,0,0,0,0.1,0l-0.3,0l-0.6,0l0.1,0l-0.2,0
		L290.5,98.5z M349,98.7c0,0,0.1-0.1,0.1-0.1C349,98.6,349,98.7,349,98.7z M273.7,99.4c-0.4,0-0.7,0.1-0.9,0c0,0,1.9-0.6,2.5-0.7
		c0.7,0,1.5,0,2,0l-0.2,0c-3.5,0-2,0.3,0.1,0.7l-3.5-0.1L273.7,99.4z M272.8,98.7l-0.7,0c0.1-0.1,0-0.2,0.6-0.1
		C272.7,98.6,272.7,98.6,272.8,98.7z M272.3,98.8c0,0-0.1,0-0.2,0L272.3,98.8z M285.7,98.9l-0.5,0l0.1,0
		C285.5,98.9,285.6,98.9,285.7,98.9z M284.2,98.9l-0.5,0l0.2-0.2C284.1,98.7,284.2,98.8,284.2,98.9z M280.6,98.3
		c-0.8-0.1-0.7,0.4-1.4,0.1c-0.1,0.1,0.1,0.2,0.3,0.2c-0.1,0-0.1,0.1-0.2,0.1l-0.8,0c-0.2,0-0.4,0-0.4-0.1c0.1-0.2,1-0.2,1.3-0.4
		C279.7,98.1,280.8,98.1,280.6,98.3z M224.1,98.9l0.5,0c-0.2-0.1-0.4-0.3-0.8-0.3c-0.9,0.3-1.6,0-2.6-0.1l-0.5,0.1
		c0.1,0.1,0.2,0.1,0.2,0.1C222.8,98.5,221.7,99.3,224.1,98.9z M229.8,99.2l0.3-0.1c-0.2-0.1-0.9,0-1.6,0c-0.2,0.1-0.7,0.1-0.9,0.1
		l0.1-0.1c-0.1-0.1-0.8-0.1-1.6-0.1l0.3-0.1c0.2-0.1,0.4-0.1,0.7-0.1c-0.2,0-0.4,0-0.6,0l1.4-0.4c-0.7-0.1-0.8,0.3-1.7,0.2
		c0.1-0.2,0-0.3,0.9-0.5c0.8,0,0,0.1,0.4,0.2c0.6-0.3,0.8,0.2,1.4-0.1c0.8,0,0.5,0.1,0.8,0.2c-0.8,0,0.4,0.2-0.6,0.3
		c0.8,0.1,0.6-0.2,1.2-0.1l0.1,0.2c0.6,0.1,1.9,0.2,2.7,0c-0.7-0.1,0.4-0.1,0.3-0.3c-0.1,0.2-1.1,0.1-1.1,0c0.6,0,1.9-0.1,2.2,0
		l-1-0.1c0.4-0.1,1.7-0.3,1.7-0.3c0.4,0.1,1,0.1,1.2,0.2l-0.8,0.2l-0.3-0.1l-0.4,0.2c0.5,0.1,1.5,0.2,1.7,0.3
		c-1.2,0-2.9,0.1-5.1,0.5c0,0,0,0,0.1,0C230.8,99.1,230.7,99.1,229.8,99.2z M259.3,99.4l-0.1-0.2c-1.7-0.1-2.9,0.4-4.7,0.3
		c0.2-0.2,0.9-0.1,0.8-0.1c-1,0-0.9,0.4-1.9,0.2c1.5-0.1-0.9-0.1,0.4-0.2c-1.9,0.2-3.8-0.1-5.1,0c0.3,0.1-0.5,0.2-0.5,0.2
		c-0.3,0-0.2-0.1,0-0.1c-0.6-0.1-0.7-0.2-0.6-0.4l1.3,0c-0.4,0-0.6-0.2-1-0.2v0l0,0c-0.1,0-0.3,0-0.5,0c-0.2,0.1-0.2,0.1-0.2,0.2
		l-1.6,0.4l0,0l-1.4,0l0.2-0.1l-0.8,0.1c0-0.2-0.3-0.1-0.2-0.2c-0.5-0.3-1.8,0.1-2.9,0l0.2-0.1c-0.6,0.2-2.1,0-3-0.1l0,0
		c0.6-0.1,0.7-0.2,0.4-0.3l0.7-0.1c0.3,0,1.2,0,1.3,0.1c-0.7,0-0.6,0-0.3,0.1c0.7-0.1,1.9,0,1.8-0.3c0.9,0,0.3,0.1,0.9,0.1
		c0.1,0.1-0.1,0.1-0.4,0.2l2.7-0.1c0.1-0.2-1.7-0.2-0.8-0.4c0.2-0.1,0.2-0.3,1.1-0.3c0,0-0.1,0-0.2,0.1c0.4,0,0.5,0,0.9,0.1
		c0.1,0.2-0.6,0.1-0.9,0.3c0.3,0,0.6-0.1,0.9-0.1l-0.1,0.1l1,0c0.4-0.1-0.7,0-0.8-0.1l0.6-0.1c0.7,0,2.6-0.1,3.3,0.2
		c0.8,0.1,0.5-0.1,0.7-0.2c0.5-0.2,1,0.1,1.4,0c0-0.1,0.6-0.1,0.6-0.3l0.8,0c0.5-0.3-1,0-1.2-0.2c-0.4-0.2,0.6-0.1,0.3-0.2
		c-0.6,0-0.7,0.1-1,0.2c-0.3,0-0.5,0-0.5-0.1c1,0.1,0.5-0.2,1.3-0.2l0,0.1c0-0.2,1.2-0.1,1.6-0.2c0.9,0.2-0.7,0.3-0.7,0.3l1.1-0.1
		c-0.5,0.1,0,0.2-0.6,0.3c0.7-0.1,0.7,0.1,1.3,0c-0.7,0.3,0.9,0.2,1,0.4c-0.7,0.1-2.1-0.2-1.9-0.2c0,0.1-0.9,0-1.2,0l-0.5,0.2
		c0.6,0,1.4-0.1,1.1,0.1l0.8-0.1c-0.8,0.3-0.8,0.3-1.5,0.5c1.5,0.3,2.7-0.3,3.9-0.1l-0.2,0c2.5-0.1,3,0.3,3.6,0.6L259.3,99.4z
		 M263.8,98.9l-0.5-0.1l0.8-0.1c-0.3-0.2-0.9,0-1.3,0c-0.5-0.1,1.1-0.1,1.6-0.4c0.5-0.1,1.5,0,1.3,0.1c0-0.3,1.5-0.1,2.1-0.3
		c1.3,0,0.9,0.3,2.1,0.2l-0.4-0.1c1.1-0.1,1.5-0.1,2.7,0c0.1,0.2-0.5,0-0.8,0.1l0.6,0.2c-0.3,0-0.8,0.2-0.7,0c0,0.1-0.4,0.2,0.3,0.2
		l-0.6,0.1c0,0,0.1,0,0.1,0.1l-0.5,0c-0.2-0.1-0.6-0.1-0.9-0.2c0-0.1,0.3-0.1,0.5-0.1c-0.5-0.1-1,0-1.2,0c0.8,0,0.4,0.1,0.5,0.3
		c-0.5,0.1-1.3,0-1.6,0.1c-0.7-0.1-1.2-0.2-0.8-0.4c-0.4,0.1-0.9,0-1.3,0.2c0.9-0.2,0,0.4,1.1,0.1c0.3,0.2-0.9,0.1-1.5,0.1
		c0.3,0,0-0.1,0.1-0.2c-0.8,0.1-0.4,0.3,0.2,0.3l-1,0.1l0.1,0l-1,0.1C263.6,98.9,263.6,98.8,263.8,98.9z M281.8,100.6L281.8,100.6
		L281.8,100.6L281.8,100.6z"/>
	<path class="st1" d="M208.9,99.3c-0.2,0.1-0.8,0.1-0.7,0.2C208.2,99.3,209.2,99.4,208.9,99.3z"/>
	<path class="st1" d="M208.2,99.1c0,0,0,0.1-0.3,0.1l0.7,0L208.2,99.1z"/>
	<path class="st1" d="M207.5,98.2c-0.4,0.1-0.6,0.2-1.2,0.2c-0.2-0.3,0.9-0.1,1.2-0.4c-1,0-1.4,0.3-2.2,0.3
		C205.7,98.4,207.4,98.4,207.5,98.2z"/>
	<polygon class="st1" points="207.9,97.7 207.3,97.8 207.4,97.8 208,97.7 	"/>
	<path class="st1" d="M220.6,100.8c0,0.1,0.4,0,0.6,0C221.1,100.7,220.9,100.7,220.6,100.8z"/>
	<path class="st1" d="M335.9,100.9l4.5-0.1L335.9,100.9z"/>
	<path class="st1" d="M235.5,100.1c-1.2,0.1-1.7,0.3-3,0.3c1.6,0.2,2.1-0.3,3.5-0.1L235.5,100.1z"/>
	<path class="st1" d="M235.1,100.9c-0.2-0.2,0.9-0.2,0.8-0.4c-0.8,0-0.4,0.2-1.1,0.2L235.1,100.9z"/>
	<polygon class="st1" points="229.6,97.5 230,97.4 229.7,97.4 	"/>
	<polygon class="st1" points="240.5,100.7 240.4,100.8 241,100.9 	"/>
	<path class="st1" d="M240.3,100.8l0.1,0L240.3,100.8z"/>
	<polygon class="st1" points="230.1,97.1 229.5,97 229.3,97.1 	"/>
	<path class="st1" d="M234.9,98.2l-0.5,0.1C234.5,98.2,235.1,98.3,234.9,98.2z"/>
	<polygon class="st1" points="244.2,100.8 244.8,100.7 244.8,100.7 244.2,100.8 	"/>
	<path class="st1" d="M238.7,97.6c-0.3-0.2,1,0,0.3-0.2C238.3,97.5,238.6,97.5,238.7,97.6z"/>
	<path class="st1" d="M245.8,98.7c0.1,0,0.2,0,0.2,0L245.8,98.7z"/>
	<path class="st1" d="M245.8,98.7c-0.3,0-0.5-0.1-0.7,0C245.4,98.7,245.5,98.7,245.8,98.7z"/>
	<path class="st1" d="M248.7,98.6l-0.2,0c0.2-0.1,0.1-0.1-0.1,0c-0.2,0-0.2,0.1-0.3,0.1l-0.1,0.1l0.2-0.1
		C248.6,98.7,248.8,98.7,248.7,98.6z"/>
	<path class="st1" d="M259.6,101.3c-0.9-0.1-1.1-0.1-1-0.2c-0.8,0-0.7,0.2-1.2,0.2C258.3,101.3,258.5,101.4,259.6,101.3z"/>
	<path class="st1" d="M257.4,101.3l-0.3,0C257.2,101.3,257.3,101.3,257.4,101.3z"/>
	<polygon class="st1" points="245.3,97.3 245.8,97.1 245.6,97.1 	"/>
	<path class="st1" d="M260.9,101.4c-0.2,0-0.4,0-0.5,0C260.3,101.5,261.1,101.4,260.9,101.4z"/>
	<path class="st1" d="M257.6,99c-0.1-0.1-0.6,0-0.9-0.1C257.1,98.9,257.3,99.2,257.6,99z"/>
	<path class="st1" d="M263.4,100.9c-0.2,0-0.4-0.1-0.3-0.2C262.9,100.7,262.5,101,263.4,100.9z"/>
	<polygon class="st1" points="259.2,99 259.1,99 258.5,99 	"/>
	<path class="st1" d="M257.1,97.2c-0.7,0.1,1,0.4-0.1,0.5c1.5,0.2-0.1-0.2,1-0.2C257.3,97.4,257,97.2,257.1,97.2z"/>
	<path class="st1" d="M258,97.5l0.3,0L258,97.5z"/>
	<path class="st1" d="M267.3,98.4c-0.1,0-0.2,0-0.2,0C267.1,98.4,267.2,98.4,267.3,98.4z"/>
	<path class="st1" d="M261.4,97.4l-1,0.2c0.7-0.1,2.3-0.1,2.2-0.4c-0.5,0-1.2,0-1.5,0.1L261.4,97.4z"/>
	<path class="st1" d="M272.8,101.3l-0.4,0.1l0.5,0C272.8,101.4,273,101.2,272.8,101.3z"/>
	<path class="st1" d="M273,101.4l-0.1,0C272.9,101.4,273,101.4,273,101.4z"/>
	<path class="st1" d="M265.4,98.5c-0.3,0-0.6,0-0.9,0C264.6,98.6,265.4,98.6,265.4,98.5z"/>
	<polygon class="st1" points="275.8,101 275.1,101 275.9,101 	"/>
	<polygon class="st1" points="279.1,101.4 279.2,101.4 279.8,101.3 279.7,101.3 	"/>
	<path class="st1" d="M274.8,97.1c-0.5,0-0.9,0.2-0.7,0.2l0.9,0c-0.2-0.2-0.3,0-0.8,0L274.8,97.1z"/>
	<path class="st1" d="M303.6,101.1c-0.2,0.1-1.2,0-1.3-0.1c0.1,0,0.7-0.1,0.3-0.2l-0.8,0.3c-1.1-0.2,0.8-0.4,1.3-0.5
		c-1.1,0-1.4,0.1-2.6,0.1c0.3,0,0.6,0.1,0.7,0.2c0,0.2-1,0.1-1.8,0.1c0.5,0.1,0.2,0.2-0.1,0.2c-0.1,0-0.1,0-0.1,0l-0.1,0h0.1
		c0,0,0,0,0.1,0.1c0.7-0.1,1.1,0.1,1.6,0.1c-0.4-0.3,1.4-0.1,2-0.2l0.6,0l0.2,0c0,0,0,0.1-0.4,0.1c0.3-0.1,1.2,0,1.2-0.1l2.2,0
		c0.1,0,0.1,0,0.2,0c0.1,0,0.1,0,0.1,0l9.6,0l-1.4-0.1c0.7-0.2-0.8,0-0.6-0.2c0.3-0.1,0.8-0.1,1.1,0c0.1-0.1-0.3-0.2-0.3-0.3
		c-1.2-0.1-1.4,0.4-2.6,0.3c0-0.1,0.4-0.2-0.4-0.2l0.2,0c-1.2,0.1-1-0.3-1.7,0.1l0-0.2c-0.6,0.1-1.7,0.1-2.3,0.2l0,0
		c-1.7,0.2-1,0-2.9,0.1l0.9-0.2c-0.7-0.1-0.8,0.1-1.3,0.1c0,0-0.1-0.2,0.4-0.2l-2.4,0.3C302.9,101,303.5,101,303.6,101.1z"/>
	<path class="st1" d="M300.6,100.8c-0.1,0-0.3,0-0.4,0L300.6,100.8z"/>
	<path class="st1" d="M317.2,101.3h-0.7C316.7,101.3,316.9,101.4,317.2,101.3z"/>
	<path class="st1" d="M297.3,101.2c0.4,0.1-0.3,0.1-0.4,0.2l1.5,0c0-0.1,0.1-0.1,0.1-0.2L297.3,101.2z"/>
	<path class="st1" d="M298.8,101.5c0,0,0.2-0.1,0.4-0.1h-0.8C298.4,101.4,298.5,101.5,298.8,101.5z"/>
	<polygon class="st1" points="298.6,97.9 298.9,97.8 299.3,97.8 	"/>
	<path class="st1" d="M302.7,98.2c-0.3-0.1-0.9,0-1.1,0C302.3,98.2,302,98.2,302.7,98.2z"/>
	<polygon class="st1" points="301.8,97 302.5,97 302.4,97 	"/>
	<path class="st1" d="M322.1,100.6l0.3,0L322.1,100.6z"/>
	<path class="st1" d="M316.6,100.8c1.5,0.2-1,0.2-0.5,0.4l0.8-0.1l-0.1,0.1l1,0c-0.2-0.1-0.4-0.1-0.3-0.3c1.4,0.1,0.4,0.1,1.4,0.3
		l1.5,0l-0.1,0c0.1,0,0.2,0,0.2,0l5.2-0.1c0.9-0.1-0.5-0.2,0.2-0.4c-1.1,0-2.7-0.1-2.8,0.1c0,0,0.1-0.1-0.1-0.1l-0.6,0.2l0.6,0.1
		c-0.6,0.2-2.7,0.2-3.1,0c1.2-0.1,0.6-0.3,2.2-0.2c-0.1-0.1-0.4-0.2,0-0.2C320.2,100.7,318.5,100.6,316.6,100.8z"/>
	<path class="st1" d="M335.6,100.7L335.6,100.7C335.7,100.7,335.7,100.7,335.6,100.7z"/>
	<path class="st1" d="M335,100.7l-0.9,0.2l1.4,0l0.1-0.2c-0.1,0-0.6,0.1-0.8,0.1L335,100.7z"/>
	<path class="st1" d="M333,101c0.8-0.1,0.7-0.3,0.3-0.4c0.7-0.1,0.4,0.2,0.8,0c0-0.1-0.9-0.1-1.1,0L333,101z"/>
	<polygon class="st1" points="327.5,100.9 327.7,100.9 327.2,100.8 	"/>
	<path class="st1" d="M327.7,100.9l0.5,0c0-0.1-0.1-0.1-0.2-0.2L327.7,100.9z"/>
	<path class="st1" d="M329.6,100.9l0.7,0L329.6,100.9z"/>
	<polygon class="st1" points="329,100.9 329,100.9 329.6,100.9 	"/>
	<path class="st1" d="M328.2,100.9c0.1,0.1,0.2,0.3,0.9,0.2l-0.1-0.2L328.2,100.9z"/>
	<polygon class="st1" points="306.6,97.3 307.2,97.2 307.1,97.2 306.5,97.2 	"/>
	<path class="st1" d="M310,97.4l0.4-0.1C310.2,97.3,310,97.3,310,97.4z"/>
	<path class="st1" d="M312.5,96.4c0.7,0.1-1,0.2,0.3,0.2c0.1,0.1-0.5,0.3-1.1,0.2c0-0.1,0.6-0.1,0.2-0.2c-0.4,0.1-0.6,0-0.4,0.2
		c-0.7,0.1-0.8,0.2-1.2,0.4c0.8-0.1,2.5,0.1,3.6-0.1c0.6-0.2,0.2-0.5,0.2-0.8C314,96.3,312.5,96.2,312.5,96.4z"/>
	<path class="st1" d="M311.4,96.1c-0.3,0-0.4,0-0.6,0C310.8,96.2,311.1,96.1,311.4,96.1z"/>
	<path class="st1" d="M318.7,98.5c0.1-0.1,0.6-0.1,0.5-0.2l-0.9,0.1C318.6,98.4,318.6,98.5,318.7,98.5z"/>
	<path class="st1" d="M318,98.4l0.4,0C318.3,98.4,318.2,98.4,318,98.4z"/>
	<path class="st1" d="M318.8,98.6L318.8,98.6C318.7,98.5,318.7,98.5,318.8,98.6z"/>
	<path class="st1" d="M331.7,101c0,0.1,0.4,0,0.6,0C332.1,101,331.9,101,331.7,101z"/>
	<path class="st1" d="M346.4,100.7l0.3,0.1C346.6,100.7,346.6,100.7,346.4,100.7z"/>
	<path class="st1" d="M351.7,98.3C351.7,98.2,351.7,98.2,351.7,98.3C351.7,98.2,351.7,98.2,351.7,98.3z"/>
	<path class="st1" d="M351.8,98.2c0.2-0.1,1,0,1.2-0.1l0,0l0.5-0.1C353,98.1,352,98.1,351.8,98.2z"/>
</g>
<g>
	<path class="st1" d="M128.5,78.1c0-0.1-0.4-1.4-1.1-1.4c-0.1,0-0.2,0-0.3,0.1l-0.3,0.1c-5.8,2.7-9.7,4.5-11,4.9
		c-2.2,0.7-7.7,0.8-9.5,0.9c-2.5,0-15.8-2.6-19.4-3.8c-1.4-0.5-2.8-0.7-4.4-0.9c-2.5-0.3-5.3-0.7-8.5-2.4c-3.3-1.8-5.4-2.4-7.1-3
		c-1-0.3-1.8-0.6-2.5-0.9c-1.7-0.8-7.9-4.3-11.7-6.5L52.3,65l0.4-0.4c4-4.1,6.5-6.6,7.2-7.6c0.6-0.9,1.8-2.8,3.1-4.8
		c1.7-2.7,3.6-5.7,4.3-6.5c0.2-0.2,0.5-0.6,0.9-1.1c4.2-4.9,8.6-10,9-11.2c0.4-1.3,2.7-3.7,6.2-7.3l0.1-0.1l0.6-0.1
		c1.1-0.1,1.9-0.3,2.5-0.3c1.1-0.1,6.8-0.6,9.2-1.7c1.1-0.5,2.5-1.8,3.7-3c1.1-1.1,2.2-2.1,3-2.4c1.7-0.7,3.2-1.7,5.1-3.1
		c1.7-1.2,3.1-3.4,4.2-5.2c0.2-0.3,0.4-0.6,0.6-0.9c1.3-2,1.6-3.6,1.2-5.5c-0.4-1.9-2-3.9-4.6-3.7c-1.5,0.1-3.6,0.9-5.6,1.6
		c-1.2,0.5-2.4,0.9-3.4,1.2c-1.6,0.4-2,1-2.5,1.8C97,5.1,96.8,5.6,96.1,6l-0.2,0.2c-1.9,1.3-5.5,3.7-11,8.8c-4.5,4.1-5.4,5.4-6,6.3
		l-0.3,0.4l-0.2,0c-4.5,0.1-8.1,0.1-10.5-0.1c-1.7-0.1-3.7-0.2-6.6-0.2c-1.1,0-2.3,0-3.4,0c-1.1,0-2.2,0-3.3,0c-2.8,0-6-0.1-8.3-0.4
		c-3.6-0.5-5.3-0.6-6.7-0.6c-0.8,0-1.4,0-2,0.1c-0.8,0.1-1.6,0.1-2.3,0.1c-1.5,0-3,0-4.5,0.3c-2.6,0.5-10.5,4.5-11.4,6
		c-0.9,1.5-0.8,5,0.1,5.7c1.3,1.1,2.4,1.8,3.2,2.1c0.2,0.1,0.3,0.2,0.5,0.2c0.7,0.3,1.1,0.5,2.4,0.5l0.1,0c1.8,0,8.6-1.1,9.7-1.8
		c0.4-0.3,1.1-0.5,1.8-0.7c1-0.3,2-0.6,2.3-1.1c0.3-0.5,0.3-1.1,0.1-1.6c-0.1-0.2-0.2-0.4-0.5-0.5c-0.4-0.1-0.8,0.1-1.8,0.5
		l-0.8,0.4c-1.4,0.7-2.2,1-3.9,1.5c-1.7,0.5-4.1,0.7-5.8,0.9c-1.4,0.1-2.8-0.4-3.1-0.7l-0.1-0.2l-0.1-0.2c-0.2-0.5-0.5-1.1-0.5-2
		c-0.1-1,0.3-1.6,1.5-2.7c1-0.9,2.1-1.6,2.4-1.8l0.1-0.1c0.5-0.1,3.3-0.5,6.3-0.6c2-0.1,5,0.3,7.4,0.5c1.7,0.2,3.2,0.3,4.1,0.4h0.2
		c0.3,0,0.6,0,0.9,0c2.7,0,6.7,0.2,9.5,0.8c1.3,0.3,2.5,0.4,4.1,0.4c0.7,0,1.4,0,2.2,0l0.1,0c1.3,0,2.8-0.1,4.5,0
		c3.2,0.1,4.1,0,5.8-0.1l1.4-0.1l-0.8,0.8c-4.1,4-9.2,8.9-10.6,10.6c-1.8,2-7,9.2-10.9,14.4L50.7,53c-1.5,2-2.6,3.6-3.2,4.3
		c-0.3,0.4-0.7,1-1.2,1.7l-0.1,0.2c-0.6,0.8-1.2,1.6-1.9,2.5l-0.1,0.2l-0.2,0c-1.7-0.3-4-0.3-4.9-0.3c-1.2,0-2.3,0-2.9,0.1
		c-1.8,0.1-8,1.1-10.2,1.6c-4.5,1.2-7.2,2.7-8.2,4.6c-1.3,2.7-0.8,8.1,0.1,9.4c0.9,1.3,6.3,2.7,7.2,2.7c0.1,0,0.2,0,0.2,0
		c0.2-0.1,0.9-0.1,1.9-0.2c1.9-0.2,4.4-0.4,5.8-0.8c1.3-0.3,3.5-1.6,5.7-2.9c1.7-1,3.4-1.9,4.7-2.5c1.2-0.5,2.3-1.3,3.3-2.4l0.2-0.2
		l0.8,0.5c2.6,1.6,4.8,2.3,6.6,2.8c0.7,0.2,1.4,0.4,1.9,0.7c0.7,0.3,1.5,0.6,2.3,1c1.8,0.8,3.9,1.7,5.2,2c1,0.3,2.5,1.2,3.7,1.9
		c1,0.6,1.9,1.2,2.6,1.4c0.3,0.1,1.1,0.4,2,0.7c3.3,1.1,9.5,3.2,12.1,4.7c3.5,2,9.9,5,13.4,5.5c0.9,0.1,1.8,0.2,2.6,0.2
		c1.5,0,2.7-0.1,3.8-0.2c0.5-0.1,0.9-0.1,1.4-0.1c2.6-0.2,5.2-1.3,6-1.6c0.5-0.2,1.8-0.7,3.2-1.3l0.1-0.1c3.1-1.2,6.9-2.7,8.1-3.3
		c1.4-0.8,4.3-4.9,5.7-7.2l0.1-0.1L128.5,78.1z M88.9,20.4c2.2-2.3,4.7-4.8,6.9-7.1l0.1-0.1c3-3.1,5.5-5.7,6.5-6.6
		c2.1-1.9,5.2-2.9,6.1-1.8c0.8,1,0.7,2.1,0.6,3.3c0,0.4-0.1,0.7-0.1,1.1c0,0.7-1,1.5-2.5,2.6c-0.9,0.7-1.8,1.4-2.5,2.1l-0.7,0.8
		c-1.4,1.6-2.8,3-4,3.2c-0.7,0.1-3.1,0.9-5.3,1.6l-0.1,0c-1.6,0.5-3.6,1.2-4.6,1.4l-1.4,0.4L88.9,20.4z M39.6,67.5
		c-1.1,1.2-1.9,1.9-2.4,2.1c-0.8,0.3-2.1,1.2-3.7,2.2c-2.6,1.7-5.9,3.9-7.5,3.9c-0.4,0-0.8,0-1.1,0c-1.8,0-2.9-0.2-3.5-1.4
		c-0.4-0.6-0.3-0.9-0.1-1.3c0.2-0.4,0.4-0.8,0.2-1.6c-0.3-1.3,0.2-1.8,0.9-2.7c0.8-0.9,3.5-1.7,6.2-1.9c0.7-0.1,1.5-0.1,2.4-0.2
		l0.1,0c2.6-0.3,5.6-0.6,6.8-0.2c0.4,0.1,0.9,0.3,1.6,0.6l0.5,0.2L39.6,67.5z"/>
	<path class="st1" d="M118.4,34.9c-0.3-0.1-0.7-0.2-1.2-0.5c-0.6-0.2-1.3-0.6-2-0.7c-0.5-0.2-1.4-0.3-2.4-0.3h-0.1
		c-0.9,0-2.5,0.1-3.7,0.6c-1.3,0.6-2.4,1.9-3,2.6l-0.1,0.1c-0.1,0.2-0.3,0.3-0.4,0.4c-1,0.9-1.5,1.7-1.5,2l0.1,0.2l0.3,0.2
		c0,0,0.1,0.1,0.1,0.2c0.4,0.5,1,1.2,1.8,1.2l0.1,0c0.1,0,0.3,0,0.6,0l0.4,0c1.4,0,4.1,0.1,5.4,0.1c1.7,0.1,2.1-0.2,2.4-0.5l0.2-0.1
		c0.2-0.2,0.3-0.4,0.4-0.6c0.1-0.4,0.3-1,1.2-1.7c0.7-0.6,1.3-1,1.8-1.2c0.7-0.5,1.1-0.7,1.2-1.1c0-0.1,0-0.3-0.1-0.4
		c-0.2-0.2-0.6-0.3-1.1-0.4C118.7,35,118.5,34.9,118.4,34.9z"/>
	<path class="st1" d="M176.4,8.1c0.5-0.6,0.9-1,1.3-1.3c0.5-0.5,1-0.9,1.3-1.6c0.1-0.2,0.2-0.5,0.3-0.7c0.4-0.8,0.8-1.4,0.1-2.4
		c-0.8-1-1.6-1.3-2.5-1.5l-0.1,0c-0.1,0-0.3-0.1-0.4-0.1c-0.2-0.1-0.5-0.1-0.7-0.1c-1,0-1.8,0.7-2.3,1.2c-0.1,0.1-0.5,0.5-1.2,1.1
		l-0.5,0.5c-3.3,3-6.8,6.2-7.2,6.9c-0.7,1-4.5,5.5-5.1,6c-0.7,0.5-4.3,3.8-4.8,5c-0.2,0.6-1.1,1.4-2.1,2.5c-1,1-2.1,2.2-3.3,3.5
		c-1.5,1.8-2.8,3.1-3.8,4.1c-0.8,0.8-1.4,1.4-1.9,2.1c-0.5,0.6-1.7,1.9-2.8,3.1c-1.7,1.9-3.7,4-4.3,4.9c-0.4,0.5-1.8,2.6-4.3,6.5
		l-0.1,0.1c-9,6.6-13.6,9.9-14,10.2c-0.2,0.1-0.4,0.2-0.8,0.3l-0.1,0.1c-2.9,1.3-6.3,2.8-7.4,3.6c-0.8,0.5-1.7,1-2.3,1.4
		c-0.7,0.4-1.4,0.8-1.9,1.1c-1.1,0.8-3.5,2.3-5.5,2.8l-0.2,0.1c-2,0.5-2.8,0.7-3.9,0.7l-0.1,0c-0.1,0-0.2,0-0.3,0l-1.1,0.1l0.4-0.9
		c0.1-0.2,0.1-0.3,0.2-0.6c0.9-2.1,4.9-5.8,6.6-7.3c0.4-0.4,0.8-0.8,0.9-0.9c0.1-0.1,0.5-0.6,0.9-1.2c1.1-1.5,2.9-4,4-5.1
		c1.4-1.4,3.2-4.4,3.6-5l0.1-0.1l-0.1-0.1c-0.2-0.2-1.8-1.6-3.2-1.6c-1.3-0.1-6.8,0.2-7.8,0.3l-0.3,0l-1.2-0.8L98.1,45
		c-2.7,2.5-4.6,4.4-4.8,4.9C92.9,50.5,89,56,88,57.3c-1.2,1.4-2.4,4.6-2.5,4.9c0,0.1,0,0.2-0.1,0.4c-0.1,0.7-0.3,2-1.2,3.3
		c-0.6,0.9-0.6,2-0.2,3.2c0.4,1.1,1.2,2,2.2,2.3c1.7,0.7,4,1.1,6.2,1.1c0.7,0,1.4,0,2.1-0.1c3.3-0.4,8.9-2.3,10.9-3.3
		c1.2-0.6,10.4-6.4,17.5-11.1l1.6-1.1l-0.6,1.7c-0.1,0.2-0.1,0.3-0.1,0.5c0,1.4-0.3,2.3-1.4,5.3c-0.5,1.3-1,2.4-1.4,3.2l0,0.1
		c-0.3,0.6-0.6,1.3-0.8,1.8c0.2,0.9,0.5,1.4,1.1,1.9c0.6,0.3,1.3,0.4,1.9,0.4c0.6,0,1.3-0.1,1.8-0.4c0.3-0.2,0.6-0.3,0.9-0.5
		c0.6-0.3,1.2-0.6,1.7-0.9c0.2-0.5,0.5-1,0.8-1.4c0.9-2.1,1.9-3.9,2.1-4.4c0.4-0.6,3.6-4,4.7-4.9c0.4-0.3,1.1-0.8,2-1.3
		c2.1-1.3,3.7-2.3,4.1-3.2c0.8-1.4,2.4-3.4,4.6-4.7c2.5-1.4,8.3-4,9.4-4.1c0.4,0,0.7-0.1,1.1-0.2c1.2-0.3,2.2-0.2,3,0.2
		c1.7,0.8,3.2,1.6,2.6,4.9c-0.7,3.2-9,10.7-10.5,11.5l-0.5,0.3c-1.7,0.9-4.6,2.4-6.3,3.3c-1.8,0.9-2.6,1.3-4.4,1.3l-0.3,0
		c-1.5,0-3.1-0.4-4.2-0.6c-0.4-0.1-0.7-0.1-0.8-0.2c-0.1,0-0.3-0.1-0.4-0.1c-1-0.2-1.7-0.2-1.9,0c-0.1,0.1-0.2,0.3-0.1,0.6
		c0.3,0.9,1.8,3.2,3.3,3.8c1.3,0.5,3.2,0.6,4.6,0.6h0.3c2.4,0,4.8-0.3,6.3-0.7c1.8-0.6,9-4.4,11.5-6.1c2.2-1.5,8.8-7.1,9.5-8.2
		l0.3-0.5c1.9-3.1,4.4-7.6,4.3-9.9c-0.1-3.2-6.6-6.7-6.7-6.7c-0.9-0.4-5.7-1.7-8.3-1.6c-2.1,0.1-5.5,1.6-7.8,2.6l-4.3,1.9l2.7-2.4
		c4.8-4.4,5.7-5.6,5.9-5.8c0.9-1.5,8.2-11.7,8.9-12.4c0.2-0.2,0.5-0.6,0.9-1.1c1-1.2,2.5-3,3.2-3.7c0.4-0.4,1.1-0.9,1.8-1.5
		c1.6-1.3,2.7-2.2,3.1-2.7c0.3-0.3,0.9-0.9,1.6-1.5l0.1-0.1C174.5,10,175.6,9,176.4,8.1z"/>
	<g>
		<path class="st1" d="M273.8,108.7l0.6,0.2c1,0.7,1.9,1.2,3,1.6c0.9,0.4,1.7,0.6,2.3,0.6l0.4,0c0.7,0,1.5-0.1,2.4-0.2
			c0.3,0,0.6-0.1,0.9-0.2c0.4-0.1,0.8-0.2,1.3-0.3c1-0.3,2.1-0.7,3.3-1.2c1.1-0.3,2.1-0.6,3.7-1.6c1-0.6,1.7-0.9,2.2-1.1
			c0.6-0.2,1.1-0.4,1.9-1.2c0.7-0.6,1.5-1.2,2.4-1.9c1.4-1,2.9-2.1,3.7-3.2c0.1-0.1,0.2-0.3,0.3-0.4l0.1-0.1c0.3-0.3,0.7-0.6,1-0.9
			c0.4-0.3,0.7-0.5,1.1-0.8c0.9-0.6,1.8-1.2,2.6-2.2c0.8-0.9,1.6-1.8,2.2-2.4c0.8-0.8,1.5-1.5,1.8-2.1c0.3-0.6,0.6-1,1-1.4
			c0.4-0.5,0.9-1.1,1.2-1.9c0,0,0-0.1,0.1-0.1l0.1-0.2c0.6-0.8,1-1.5,1.5-2.1c0.3-0.5,0.6-1,0.9-1.4l0-0.1c0.8-1.1,2.4-3.4,2.5-3.9
			l0.1-0.2c1-1.7,1.9-3.3,2.6-4.7l0.2-0.4l0.4-0.2c0.8-0.4,1.6-0.8,2.5-1.2l1.9-0.9c2.6-1.1,4.2-1.9,5.8-2.8l1.3-0.7
			c1-0.5,2-1,3-1.5l0.5-0.3c1.6-0.7,3.3-1.4,4-2c0.2-0.1,0.4-0.3,0.6-0.4l0.6-0.3c0.4-0.2,0.7-0.4,1-0.5c0.8-0.4,1.5-0.6,1.8-0.7
			l0,0c0.1,0,0.1,0,0.2-0.1c0.1,0,0.5-0.4,0.7-0.6c0.3-0.2,0.5-0.4,0.8-0.6c0.9-0.5,1.7-1,2.5-1.5l0.2-0.1l0.8-0.5
			c0.2-0.1,0.4-0.2,0.6-0.3c0,0-0.1,0-0.1,0c-0.5,0-0.8-0.3-1-0.8c0,0,0,0,0-0.1c-0.1,0-0.2,0-0.2,0c-0.4,0-0.7,0.1-1.3,0.5
			c-0.3,0.2-0.5,0.2-0.6,0.3c-0.2,0.1-0.4,0.1-1.8,0.9c-0.5,0.3-1,0.6-1.5,0.9l-0.2,0.1c-0.8,0.5-1.7,1-2.4,1.5l-1.1,0.6
			c-0.4,0.2-0.7,0.3-1,0.4l-0.3,0.1c-0.7,0.2-0.7,0.2-1.5,0.7l-1,0.6c-2.1,1.2-9.7,4.7-10.6,5c-0.3,0.1-0.6,0.1-1,0c0,0-0.1,0-0.1,0
			l-1.1,0l0.8-1.5c0.8-1.4,1.5-2.5,1.6-2.9c0.3-0.6,0.8-2.2,1.3-3.8l0-0.1c0.4-1.4,0.9-2.9,1.3-4c0.5-1,0.9-2.1,1.5-3.1
			c1-2.1,2.1-4.4,3.3-6.8c0.1-0.2,0.2-0.3,0.2-0.4c0,0,0,0,0,0c0,0,0-0.1-0.1-0.1l-0.2-0.2l0.1-0.4c0-0.2,0-0.4,0.1-0.5
			c-0.1-0.1-0.4-0.3-0.8-0.5c-0.2-0.1-0.4-0.1-0.7-0.1c-0.2,0-0.4,0-0.6-0.1l-0.3-0.1c-0.7-0.4-1.3-0.8-2-1.2
			c-0.8-0.5-1.7-0.9-2.6-1.4c-0.7-0.5-0.8-0.7-0.9-0.8c-0.1-0.1-0.1-0.2-0.2-0.3c0,0-0.1,0-0.1,0c-0.3-0.1-0.5-0.1-0.7-0.2
			C324.2,42,324,42,324,42c0,0-0.1,0-0.2,0.1l-0.1,0.1c-0.4,0.2-0.4,0.2-0.4,1.1l-0.1,1c-0.5,1-1.1,2.2-1.7,3.4l-0.1,0.2
			c-0.2,0.2-0.4,0.4-0.5,0.5c-0.3,0.5-0.6,1-0.8,1.3c-0.1,0.2-0.2,0.4-0.3,0.6c-2.4,2.7-4.6,5-6.6,6.9c-0.5,0.5-1.1,1-1.6,1.5
			c-0.4,0.3-0.5,0.4-0.9,0.8l-0.3,0.3c-1.1,0.9-2.1,1.8-3.1,2.5c-0.4,0.2-0.8,0.4-1.2,0.6c-1.2,0.5-1.6,0.7-1.9,1
			c-0.2,0.1-0.4,0.3-0.8,0.5l-0.5,0.3c-1.7,0.9-3.1,1.6-3.7,1.8c-0.5,0.1-1-0.1-1.5-0.5l0,0l-0.1-0.2c0-0.1-0.1-0.2-0.1-0.4
			c0-0.7,0.4-1.7,1-2.9c0.5-1.1,1.3-2.4,2.1-3.8c0.8-1.3,1.7-2.7,2.7-4.3l0.1-0.2c0.3-0.2,0.4-0.4,0.6-0.5c0.1-0.1,0.4-0.3,0.7-0.6
			c0.6-0.6,1.7-1.5,1.8-2.1c0.1-0.6,0.7-1.4,1.2-2.4c0.5-0.8,1-1.7,1.1-2.1l0.1-0.3c0.1-0.1,0.2-0.2,0.3-0.3l-0.2-0.1l0.1-0.4
			c0-0.1,0-0.2,0-0.2c-0.1,0-0.1,0-0.2,0c-0.5-0.1-1.1-0.2-1.7-0.4c-0.4-0.2-0.6-0.2-0.9-0.3c-0.3-0.1-0.6-0.1-1-0.3l-0.4-0.2
			c-0.7-0.3-1.5-0.7-2.6-1c-0.7-0.2-1.3-0.3-1.9-0.5l-0.2,0c-0.5-0.2-0.9-0.3-1.3-0.4c-0.4-0.1-0.9-0.3-1.2-0.3l-0.2-0.1l-0.1-0.1
			c0,0,0,0-0.1-0.1c-0.1,0-0.2,0-0.3,0c-0.6,0.1-0.6,0.1-0.8,0.7c-0.2,0.5-2,4-3.6,7.3l-0.8,1.3c-0.7,1.2-1.3,2.3-2,3.4l-0.2,0.2
			l-3,2c-2.3,1.6-4.7,3.2-5.9,4c-0.6,0.3-1.1,0.5-1.7,0.7c-0.6,0.2-1.1,0.4-1.6,0.6c-0.7,0.4-1.7,1.2-2.6,2l-0.1,0.1l-1,0.5
			c-1.2,0.6-2.3,1.1-3.3,1.6c-0.2,0.1-0.4,0.2-0.6,0.3l-0.7,0.2c-0.6,0.1-0.8,0.2-0.9,0.3c-0.2,0.1-0.3,0.1-0.9,0.2
			c-0.3,0-0.6,0.1-0.8,0.2l-0.1,0c-0.4,0.1-0.6,0.2-0.9,0.2c-0.4,0-0.6-0.2-0.7-0.3l-0.2-0.2l0-0.2c0-0.3,0.1-0.7,0.2-1
			c0.4-1.4,1.4-3.9,2.2-5.8c0.6-1.3,1.3-2.7,2-4l0.1-0.3l0.5-0.7c0.8-1.2,2.3-3.2,2.4-3.7v0l-0.3-0.3l0.5-0.9
			c0.2-0.4,0.4-0.7,0.6-1.1c1.5-2.5,3-4.9,4.5-7.2c0.4-0.4,0.7-0.7,0.9-0.9c0.4-0.4,0.6-0.5,0.9-1.2c0.3-0.8,1.9-3,3.3-4.8
			c0.8-1,1.6-2.1,1.8-2.5c0.2-0.4,0.4-0.6,0.5-0.7c0.1-0.1,0.2-0.2,0.6-1.4c0.1-0.3,0.2-0.6,0.4-1c0.4-0.7,0.8-1.2,1.2-1.7l0.2-0.3
			l0.5-0.1l5.3,0.1c0.7,0.1,1.3,0.3,1.8,0.4l0.1,0c0.7,0.1,1.3,0.3,1.6,0.3c0.2,0,0.7-0.1,1.4-0.2l0.3,0c0.7-0.1,1.6-0.2,2.5-0.4
			c6,0.1,11.6,0.1,16.7,0.2l0.6,0c2.2,0.2,3.2,0.3,3.5,0.3c0.2,0,0.4-0.1,1.1-0.1l0.2,0c1.5,0,2.7,0,4.7,0.1l3.4,0.1
			c1.3,0,1.9,0,2.2,0h0.1c0.1,0,0.4-0.1,0.6-0.1c0.4,0,0.7,0,1,0l0.9,0c5.3,0.1,9,0.1,9.5,0.2c0.7,0,1.1-0.2,1.2-0.4c0,0,0,0,0-0.1
			l-0.1,0c-0.1-0.1-0.4-0.3-1.1-0.4c-1.9-0.6-4-0.9-5-0.9c-1.2,0-5.7-0.2-8-0.5c-1.1-0.1-1.5-0.2-1.9-0.2c-0.5,0-0.9,0-2.2-0.2
			c-1.4-0.2-1.5-0.2-1.7-0.1c-0.2,0-0.5,0-1,0l-0.2,0c-0.5,0-1,0-1.5,0l-2.9-0.2c-0.6,0-1.6-0.2-2.5-0.3l-0.3,0
			c-1-0.1-2.1-0.3-2.6-0.3c-0.3,0-0.6,0-1.1-0.1l-0.3,0c-1.8-0.1-4.8-0.4-8.8-0.4c-2.9,0-4,0-5,0l-0.9,0c-0.5,0-1.2,0-2.2,0
			c-0.5,0-1.2,0-2,0l0,0c-1.4,0-2.8-0.1-4.2-0.1l-1.1,0l5.5-8.4c0.3-0.4,0.6-0.8,0.9-1.1l0,0c0.3-0.4,0.6-0.7,0.7-0.9
			c0.1-0.2,0.2-0.3,0.3-0.5c0.3-0.4,0.5-0.8,0.7-1.2l0.2-0.4c0.1-0.1,0.2-0.2,0.3-0.3l0-0.1c-0.3,0.1-0.8,0.3-1.3,0.3
			c-0.9,0.1-1.9,0.3-2.9,0.5c-0.3,0.1-0.7,0.1-1,0.2l-0.6,0.1c-0.4,0.1-0.8,0.1-1.4,0.1l-0.1,0c-0.7,0.1-1,0.1-1.3,0.1
			c-0.4,0-0.4,0-1.4,0.5c-0.7,0.3-1,0.5-1.3,0.6c-0.2,0.1-0.3,0.1-0.9,0.5L286,13c-0.2,0.1-0.4,0.2-0.5,0.2
			c-0.6,0.3-1.1,0.6-1.4,0.9c-0.2,0.3-0.6,0.8-0.8,1.1l-0.3,0.3c-0.4,0.3-0.6,0.5-0.8,0.6c-0.3,0.2-0.4,0.3-0.8,0.8
			c-0.2,0.3-0.9,1.6-1.5,2.8c-0.4,0.8-0.8,1.7-1.3,2.5l-0.2,0.4l-0.9,0l-3.9,0c-1.1,0-3.5-0.1-5.3-0.2l-0.9,0c-1.1,0-2.8,0-6.1,0
			l-6,0c-2.9,0-4.1,0-4.6,0l-0.2,0c-0.2,0-0.4,0-0.7,0c-0.8,0-2,0.1-3.4,0.2l-0.2,0c-1,0.1-2.1,0.2-3,0.2c-2.8,0-5.4,0.1-7.8,0.1
			l-0.3,0c-0.1,0-0.2,0-0.4,0c-3.3,0-20.3,0.1-21.8,0.1c-1,0-1.9,0.2-2.8,0.3l-0.1,0c-0.5,0.1-1,0.2-1.4,0.2
			c-0.8-0.1-3.5-0.2-3.8-0.2c0,0,0,0,0,0c-0.2,0-0.4,0-0.5,0c-0.2,0.1-1.1,0.4-2.1,0.7c-1.4,0.2-2.3,0.3-2.9,0.5
			c-0.5,0.1-1,0.3-1.4,0.6l-0.2,0.1c-0.9,0.1-1.1,0.1-1.2,0.1c0,0-0.2,0.4-0.3,0.7c0,0.1-0.1,0.2-0.1,0.3l0.2,0.1l-0.1,0.4
			c-0.1,0.3-0.1,0.6,0,0.8l0.1,0.2l-0.1,0.2c-0.1,0.2-0.1,0.3,0,0.5c0,0.1,0,0.1,0,0.1c0.1,0.1,0.2,0.2,0.3,0.4c0,0,0.2,0.1,1.4,0.2
			h0.1c0.5,0,1,0,1.4-0.1l0.8-0.1c1,0,2.5-0.2,4.9-0.5l0.3,0c1.3-0.1,2.3-0.2,2.9-0.2h0.1c2,0,2.8,0,6.1-0.6c1-0.2,1.3-0.3,1.4-0.3
			l0.2,0c1.3-0.1,2.8-0.2,4.3-0.3l0.6,0c1.6-0.1,7.3-0.4,11.4-0.6l2-0.1c1.1,0,2.2-0.1,3.4-0.1l2.4,0c1.2,0,2.1,0,2.7-0.1
			c1.3,0,2.5,0,3.9,0l0,0c0.7,0,1.5,0.1,2.4,0.1l0.3,0c0.9,0,1.6,0,2.3-0.1c0.6,0,1.1,0,1.7,0c1.6,0,3.3,0,5,0l4.2,0
			c0.1,0,0.1,0,0.1,0c0,0,0.1,0,0.1,0l2.8,0c3.1,0,6.2,0.1,9.3,0.1l1.2,0l-1.1,1.6c-0.8,1.1-1.8,2.4-2.9,4c-0.4,0.4-0.4,0.4-0.5,0.7
			c-0.1,0.1-0.1,0.3-0.2,0.4l-0.4,0.6c-0.3,0.3-0.5,0.5-0.7,0.7c-0.4,0.4-0.8,0.7-1.2,1.4c-0.8,1.4-5.6,9.5-6.5,10.9l-0.4,0.7
			c-0.2,0.4-0.2,0.4-0.5,0.9L261,49c-0.4,0.9-1.1,1.8-1.6,2.5l0,0c-0.4,0.5-0.8,1.1-0.9,1.4c-0.1,0.2-0.1,0.4-0.1,0.6l0,0
			c0,0.2,0,0.5-0.1,0.8l0,0.1l-0.5,0.9c-0.3,0.5-0.6,1.1-0.8,1.6l-0.1,0.2c-0.4,0.3-0.9,0.7-1.2,0.9c-0.5,0.3-1,0.6-1.4,0.8
			c-0.2,0.1-0.6,0.3-0.7,0.4c-0.1,0.1-0.3,0.2-0.6,0.5c-0.5,0.4-1.1,0.8-1.5,1.3c-0.6,0.4-1.2,0.8-1.7,1.2c-0.2,0.1-0.3,0.2-0.5,0.3
			l-0.4,0.3l-0.7,0.3c-0.2,0.1-0.6,0.2-0.7,0.3c-0.1,0.3-0.4,0.5-1.3,1.1c-0.9,0.6-1.8,1-2.6,1.4l-0.3,0.1c-0.1,0-0.1,0-0.2,0
			c-0.4,0-0.8,0.2-1.2,0.4c-0.6,0.3-1.3,0.5-1.8,0.3l-0.2-0.1l-0.1-0.2c-0.1-0.1-0.2-0.3-0.2-0.5c0-0.6,0.3-1.6,0.8-3
			c0.3-0.7,0.6-1.4,1-2.3l0.1-0.1c0.2-0.2,0.2-0.3,0.3-0.3c0.1-0.1,0.2-0.4,0.7-1.2c1.2-2,2-3.3,2.1-4.4c0-0.4,0.1-0.8,0.2-1.3
			c0.7-1.6,1.3-2.8,1.7-3.9c0.1-0.2,0.1-0.4,0-0.7c-0.1-0.2-0.3-0.4-0.6-0.6l-0.2-0.1l-0.1-0.2c0-0.1,0-0.1-0.1-0.2l0-0.1
			c0,0,0,0,0-0.1c-0.1-0.1-0.4-0.2-0.7-0.3l-0.2-0.1c-0.6-0.3-1.1-0.5-1.6-0.7l-0.2-0.1l-0.4-0.2c-0.4-0.2-0.8-0.4-1.1-0.7
			c-0.7-0.5-1.6-1.2-2-1.5c0,0-0.1,0-0.2,0c-0.3,0-0.6-0.1-1.7-0.6l-0.7-0.4c-1.1-0.6-2.1-1.1-2.9-1.4c-0.1-0.1-0.3-0.2-0.3-0.2
			c-0.3-0.1-0.6-0.3-1.1-0.7c-0.2-0.2-0.3-0.3-0.4-0.3l-0.3-0.2l0-0.3c0-0.6-0.1-1.1-0.1-1.6c0-0.4-0.1-0.7-0.1-0.9
			c-0.1-0.1-0.2-0.2-0.6-0.4c0,0-0.1,0-0.1,0l-0.1,0c-0.1,0-0.1-0.1-0.2-0.1l-0.2-0.1l-0.1-0.1c-0.1-0.1-0.1-0.1-0.2-0.2
			c-0.2-0.1-0.3-0.2-0.4-0.3c-0.2-0.1-0.3-0.2-0.4-0.2c-0.1,0-0.6-0.1-1.2-0.1l-0.4-0.1c0,0-0.1,0.1-0.1,0.1l-0.2,0.1
			c-0.6,0.2-0.9,0.4-0.9,0.4c-0.3,0.2-2.7,3-3,3.8c-0.4,1-1,1.8-1.4,2.2c-0.2,0.2-0.4,0.5-0.8,1.1l-0.2,0.4
			c-0.3,0.4-0.5,0.7-0.7,0.9c-0.1,0.1-0.1,0.1-0.2,0.2c0.1,0.1,0.2,0.2,0.3,0.3l0.2,0.1l0,0.2c0,0,0,0,0,0.1
			c0.6,0.4,1.1,0.7,1.8,1.1c0.3,0.2,0.7,0.5,1.1,0.7l0.7,0.4l-1.6,1.3c-2.2,1.9-7.4,6.2-7.8,6.8c-0.5,0.8-1.4,1.4-2.4,2.2l-0.1,0.1
			c-0.2,0.2-0.5,0.4-0.8,0.6c-1.4,1.1-3.1,2.3-4.2,3c-0.9,0.6-1.3,0.7-2,0.8l-0.1,0c-0.1,0-0.3,0-0.4,0.1c-0.2,0.1-0.3,0.1-0.5,0.2
			c-0.3,0.3-0.9,0.8-2.7,1.8c-2.5,1.3-4.5,2.2-6.1,2.7c-1.4,0.3-2.9,0.5-4.4,0.5c-1.2-0.1-1.8-0.3-2.2-0.5l0,0
			c-0.2-0.1-0.3-0.1-0.5-0.2c-0.7-0.2-0.8-0.2-1.2-0.6c-0.1-0.1-0.3-0.3-0.7-0.5c-0.4-0.3-0.7-0.5-0.9-0.7l-0.2-0.2l0-0.2
			c0-0.2,0-0.3,0-0.3c0-0.8,0.1-1.6,0.2-2.4l0.1-0.4l0.5-0.1c0.8-0.1,1.6-0.3,2.5-0.7c1-0.4,2.3-0.9,3.7-1.5l0.2-0.1
			c2.1-0.8,4.6-1.8,5.8-2.5c0.5-0.3,1.3-0.7,2.1-1.1c2.3-1.2,6.2-3.2,6.7-4.3l0.2-0.4l0.1-0.1c0.1-0.1,0.1-0.1,0.2-0.2
			c1-1,1.6-2.1,1.6-3c0-0.6-0.3-1.3-0.8-2.2c0,0-0.1-0.1-0.1-0.1c0-0.1-0.1-0.1-0.1-0.2l-0.1-0.2c-0.1-0.3-0.1-0.4-0.2-0.5
			c-0.1-0.3-0.2-0.5-0.3-0.7c-0.3-0.6-0.3-0.6-1-0.9l-0.2-0.1c-0.6-0.3-1.2-0.6-1.7-0.9c-0.6-0.4-1.2-0.8-1.8-1.1
			c-1.1-0.6-2.2-0.8-3.3-0.8h-0.2c-1.6,0-3.4,0.2-5.3,0.6c-1.2,0.2-3.4,0.8-4.1,1.1c-0.2,0.1-0.4,0.2-0.6,0.3l-0.5,0.2
			c-0.3,0.1-0.6,0.2-0.8,0.4c-0.7,0.3-1.4,0.7-2.2,1.1c-0.6,0.3-1.1,0.6-1.7,0.8l-0.3,0.1c-0.5,0.3-1,0.5-1.4,0.7
			c-0.9,0.4-1,0.5-1.5,1.4l-0.3,0.4c-1.3,1.1-2.4,2.2-3.5,3.5c-1.4,1.8-2.6,3.8-3.5,5.9c-0.2,0.5-0.4,1-0.6,1.6
			c-0.6,1.4-1,2.7-1,3.5c0,0.9,0.1,1.6,0.2,2.2c0,0.7,0.4,1.4,1,2.3c0.4,0.5,0.9,1.1,1.6,1.8c0.3,0.3,0.5,0.5,0.7,0.7
			c0.3,0.3,0.6,0.5,0.8,0.8l0,0c0.6,0.6,1.1,1.1,2,1.5c0.1,0,0.2,0.1,0.5,0.1l0.2,0.1c0.1,0,0.2,0.1,0.2,0.1c0,0,0.1,0.1,0.1,0.1
			c1.2,0.6,2.3,0.9,3.2,0.9l0.3,0c2.4,0,4.9-0.2,7.4-0.7c1.3-0.1,3.2-0.6,5.8-1.6c1-0.3,1.8-0.6,2.5-0.9c0.1,0,0.2-0.1,0.3-0.1
			l0.7-0.3c1.4-0.5,5.6-2.2,6-2.7c0.4-0.5,1.5-1.2,3.4-2.2l0.1,0c1.2-0.7,2.5-1.4,3.1-1.9c0.4-0.4,0.9-0.7,1.3-1.1l0.1,0
			c0.5-0.4,1-0.8,1.5-1.2c0.9-0.7,1.8-1.3,2.6-2l-0.3-0.2l0.7-0.4c0.3-0.2,0.7-0.4,1.1-0.6l0.1,0c0.6-0.3,1.3-0.7,2.2-1.3
			c1.7-1.1,3.8-3.9,4.7-5.2l0.3-0.4l0.5,0.2c0.1,0.1,0.3,0.1,0.6,0.2c0.4,0.1,0.6,0.2,0.8,0.2l1.2,0.6c0.2,0.1,0.3,0.2,0.5,0.3
			c0.5,0.3,0.8,0.4,1,0.5l0,0c0.3,0.1,0.5,0.2,1.2,0.6c0.3,0.2,0.6,0.3,0.8,0.4l0.6,0.3l-1.1,1.9c-0.4,0.7-0.8,1.6-1.4,2.8l-0.2,0.3
			l-0.2,0.2c-0.8,0.9-0.8,1-0.9,1.6c0,0.2-0.1,0.4-0.1,0.6c-0.2,0.9-0.7,2.4-1.1,3.4l-0.1,0.1c-0.1,0.3-0.2,0.5-0.3,0.8
			c-0.2,0.6-0.3,1.1-0.3,1.6c-0.1,0.4-0.1,0.6-0.2,0.9l-0.1,0.3c-0.2,0.6-0.2,0.9,0,1.2c0.4,0.5,0.6,0.7,0.7,1
			c0.1,0.2,0.2,0.4,0.5,0.7c0.4,0.5,1.3,0.9,2.7,1.1l0.2,0.1c0.3,0.2,0.7,0.3,1,0.5c0.8,0.3,1.5,0.5,2,0.5c0,0,0,0,0,0
			c0.3,0,0.7,0,1.2-0.1c1-0.1,1.7-0.2,2.1-0.3c0.3-0.1,0.4-0.2,0.5-0.3l0,0c0.1-0.1,0.2-0.2,0.3-0.3l0.2-0.1c1.2-0.5,2.2-1,3.2-1.5
			c0.1-0.1,0.2-0.1,0.4-0.2l0.5-0.3l0.6-0.2c1-0.3,2-0.7,2.4-1c0.2-0.2,0.3-0.3,0.5-0.5l0,0c0.4-0.4,0.7-0.8,1.8-1.3
			c0.8-0.4,1.2-0.7,1.8-1.2l0.1-0.1c0.3-0.3,0.7-0.6,1.2-0.9c0.1,0,0.1-0.1,0.2-0.1l0.1,0l1.8-1.4l-0.6,1.9
			c-0.2,0.5-0.3,0.9-0.3,1.2c0,0.3,0.2,0.8,0.6,1.4c0.1,0.2,0.2,0.3,0.4,0.4l0.3,0.5c0.1,0.9,0.6,1.3,0.7,1.4
			c0.3,0.3,1.1,0.9,1.7,1.1c0.4,0.1,0.8,0.3,1.2,0.4l0.2,0.1c1,0.6,1.6,0.7,1.9,0.8c0.7,0,1.6-0.1,2.7-0.4c0.4-0.1,0.9-0.3,1.5-0.5
			c0.7-0.3,1.5-0.5,2.2-0.9l0.2-0.1c0,0,0.1,0,0.2,0c0.1,0,0.1-0.1,0.2-0.2l0.2-0.1c1.4-0.6,2.6-1.2,3.8-1.9l0.3-0.2
			c1.5-0.6,2.8-1.2,3.4-1.6c0.5-0.4,0.9-0.6,1.2-0.7c0.3-0.2,0.6-0.3,1.3-0.9l0.1-0.1c0.8-0.5,1.5-0.9,2.1-1.3l0.5-0.2
			c0.9-0.4,1.9-0.9,2.9-1.6c0.5-0.3,1-0.7,1.6-1.2l2.7-2.2l-1.6,2.9c-0.2,0.3-0.2,0.4-0.3,0.6c-0.1,0.2-0.1,0.3-0.3,0.6
			c-0.1,0.2-0.3,0.6-0.5,1.1l-0.3,0.7c-0.3,0.6-0.5,1.1-0.8,1.6c-0.4,0.6-0.7,1-1.1,1.3c-0.2,0.2-0.4,0.3-0.4,0.5
			c-0.1,0.3,0.2,1.8,0.5,2.8c0.2,0.6,1.1,1.6,1.3,1.7c0,0,0.2,0.1,0.4,0.2c0.2,0.1,0.6,0.3,1,0.5c0.9,0.6,1.7,1,2.6,1.4
			c0.7,0.3,1.4,0.5,2,0.6c0.3,0.1,0.4,0.1,0.6,0.1c0.6,0,1,0.1,1.2,0.2c0,0,0.1,0,0.1,0c0.1,0,0.3-0.1,0.7-0.5l0.1-0.1l3-1.4
			c0.4-0.1,0.8-0.3,1.2-0.4c1.9-0.8,7.5-4.4,8.1-4.8c0.1-0.1,0.2-0.2,0.4-0.3l0.3-0.2c1.3-0.9,2.7-2,4.2-3.1l0.2-0.1l0.4-0.1
			c0.2-0.1,0.9-0.3,1-0.4c0.3-0.5,0.7-0.9,1.5-1.5c0.2-0.2,0.5-0.4,0.8-0.6c0.3-0.2,0.5-0.4,0.7-0.6l2.5-2.2l-2.5,5
			c-1.5,3-3,6-4.4,8.9c-0.2,0.4-0.4,0.8-0.6,1.1l-0.5,0.9c-0.9,1.3-1.5,2.3-1.6,3l0,0.1c-0.6,1.1-1.2,2.3-1.9,3.4l-0.2,0.3l-2.9,1.3
			c-1.4,0.4-2.3,0.6-2.9,0.8l-0.1,0c-0.3,0.1-0.8,0.2-0.8,0.2c-0.2,0.2-0.9,0.6-5,2.9c-2.9,1.6-6.9,3.9-7.6,4.4
			c-0.3,0.2-0.6,0.5-0.9,0.8c-1.7,1-2.9,1.8-4,2.6c-2,1.4-3.7,2.8-5.2,4.2l-0.7,0.5c-0.6,0.4-1.3,0.8-1.6,1.1
			c-0.5,0.6-0.5,0.9-0.7,1.5l0,0.1c0,0.2-0.1,0.4-0.2,0.6c-0.2,0.8-1.1,2-1.7,3l0,0c-0.2,0.3-0.4,0.7-0.5,0.8c0,0.2,0.3,1.3,0.8,2.1
			C271.6,107.9,272.8,108.3,273.8,108.7z M187.4,57.3c0.1-0.3,0.2-0.5,0.2-0.8c0,0,0-0.1,0-0.2l0-0.1c0.5-1.2,1.1-2.2,1.6-3.2
			c0.3-0.4,0.6-0.8,0.8-1.1c0.5-0.6,1-1.2,1.6-1.7l0.1-0.1c0.8-0.8,1.6-1.6,1.8-2.2c0.2-0.9,0.9-1.1,1.5-1.4c0.5-0.2,1-0.4,1.6-1
			c0.3-0.3,0.4-0.5,0.5-0.6l0.1-0.2l0.3-0.1c0.3-0.1,0.6-0.1,0.9-0.1c0.9,0,1.4,0.4,1.5,0.6c0.3,0.3,0.5,0.7,0.5,1.2
			c0,0.6-0.1,1.1-0.3,1.7l-0.1,0.2c-0.6,0.7-1.4,1.8-1.7,2.3c-0.2,0.3-0.6,0.6-1.2,1.1l-0.1,0c-0.4,0.3-0.9,0.7-1.5,1.2
			c-0.6,0.5-1.1,0.8-1.6,1.1c-0.6,0.3-1.1,0.6-1.7,1.3c-0.6,0.6-1,1.1-1.4,1.4c-0.8,0.5-1.6,0.9-2.4,1.4l-1.5,0.8L187.4,57.3z
			 M277.6,103.8l0-0.5c0.4-1.6,1.2-3.1,2.2-4.4c1.5-1.9,3.4-3.7,5.6-5.3c2.2-1.6,4.5-3.1,6.9-4.4c0.2-0.1,0.4-0.2,0.5-0.2
			c0.4-0.2,0.7-0.3,2.7-1.5l0.2-0.1c1.1-0.6,2.1-1.2,3.1-1.7l5.2-2.9l-3.8,5.5c-0.1,0.1-0.4,0.4-0.9,1.2c-1,1.6-2.2,2.8-3.2,3.8
			c-0.5,0.5-0.9,1-1.2,1.3c-0.3,0.4-0.7,0.9-1.2,1.4c-0.6,0.7-1.4,1.6-1.6,2l-0.1,0.2c-0.9,1-1.7,1.8-2.4,2.5
			c-1.3,1.3-2.7,2.5-3.9,3.5l-0.2,0.1c-1.4,0.4-1.6,0.5-1.6,0.5l-0.3,0.2c-0.6,0.5-1.7,1.5-3.1,1.9c-0.3,0.1-0.5,0.1-0.8,0.1
			c-0.5,0-0.9-0.2-1.2-0.4C277.6,106.1,277.5,104.8,277.6,103.8z"/>
		<polygon class="st1" points="259.2,51.3 259.2,51.3 259.2,51.3 		"/>
	</g>
</g>
<g>
	<path class="st1" d="M72.3,128.3l-2.8-0.6v-1.1H78v1.1l-2.9,0.6v12.8l2.9,0.6v1.1h-8.5v-1.1l2.8-0.6v-5.9h-9v5.9l2.8,0.6v1.1h-8.5
		v-1.1l2.9-0.6v-12.8l-2.9-0.6v-1.1h8.5v1.1l-2.8,0.6v5.3h9V128.3z"/>
	<path class="st1" d="M89.6,143.1c-5.3,0-8.3-3.9-8.3-8.4c0-4.5,3.3-8.4,8.4-8.4c5.3,0,8.3,3.9,8.3,8.4
		C98,139.3,94.6,143.1,89.6,143.1z M89.3,127.6c-2.4,0-4.9,1.6-4.9,7.1c0,5.5,2.8,7.2,5.4,7.2c2.4,0,4.9-2.2,4.9-7.2
		C94.8,129.8,92,127.6,89.3,127.6z"/>
	<path class="st1" d="M124,141.7v1.1h-8.5v-1.1l2.9-0.6v-12.5H118l-5.9,14.1h-1.4l-5.8-14.1h-0.3v12.2l2.4,0.8v1.1h-6.4v-1.1
		l2.4-0.8v-12.5l-2.4-0.6v-1.1h6.4l1,2.6l3.8,9.5h0.4l3.8-9.5l1-2.6h6.8v1.1l-2.9,0.6v12.8L124,141.7z"/>
	<path class="st1" d="M141.7,130.9l-0.8,0.2l-1.4-1.7c-0.9-1-1.3-1.3-2.9-1.3h-3.6v5.8h1.4c1.6,0,2.2-0.3,2.7-2l0.2-0.8h0.9v7h-0.9
		l-0.2-0.8c-0.5-1.8-1.1-2.1-2.7-2.1h-1.4v5.9h4.8c1.6,0,2-0.2,2.7-1.2l1.6-2.3l0.8,0.1l-0.7,4.9h-14.9v-1.1l2.9-0.6v-12.8l-2.9-0.6
		v-1.1h13.7L141.7,130.9z"/>
	<path class="st1" d="M163,142.7h-8.7v-1.1l2.9-0.6v-12.8l-2.9-0.6v-1.1h8c3.8,0,5.9,1.4,5.9,3.6c0,2-1.2,3-3.7,3.7v0.3
		c3.4,0.5,4.9,1.8,4.9,3.9C169.3,141.1,166.9,142.7,163,142.7z M162.2,133.8c2,0,3.2-1.2,3.2-3.2c0-1.9-1.4-2.7-3.4-2.7
		c-0.7,0-1.5,0-2,0.2v5.7H162.2z M162.1,135h-2.2v6.4c0.5,0.1,1.4,0.2,2.2,0.2c2.7,0,4.1-1,4.1-3.2C166.2,136.2,165,135,162.1,135z"
		/>
	<path class="st1" d="M185.1,127.7v-1.1h6.4v1.1l-2.4,0.8v8.6c0,3.5-2.5,6-6.7,6c-4.3,0-6.9-2-6.9-6.1v-8.7l-2.6-0.6v-1.1h8.4v1.1
		l-2.9,0.6v8.7c0,3,1.7,4.5,4.8,4.5c2.8,0,4.3-1.8,4.3-4.7v-8.2L185.1,127.7z"/>
	<path class="st1" d="M203.3,141.7v1.1h-8.8v-1.1l3-0.6v-12.8l-3-0.6v-1.1h8.8v1.1l-3,0.6v12.8L203.3,141.7z"/>
	<path class="st1" d="M221.4,142.7h-14.3v-1.1l2.9-0.6v-12.8l-2.9-0.6v-1.1h8.7v1.1l-3,0.6v12.8h4.1c1.6,0,2-0.3,2.8-1.4l1.6-2.3
		l0.8,0.1L221.4,142.7z"/>
	<path class="st1" d="M225.6,127.7v-1.1h8.5c5.8,0,9.3,3.5,9.3,8c0,4.6-3.9,8-9.5,8h-8.3v-1.1l2.9-0.6v-12.8L225.6,127.7z
		 M233.5,128.2h-2.3v13h2.8c3.6,0,6-1.7,6-6.5C240.2,129.9,237.3,128.2,233.5,128.2z"/>
	<path class="st1" d="M261,130.9l-0.8,0.2l-1.4-1.7c-0.8-1-1.3-1.3-2.9-1.3h-3.6v5.8h1.4c1.6,0,2.2-0.3,2.7-2l0.2-0.8h0.9v7h-0.9
		l-0.2-0.8c-0.5-1.8-1.1-2.1-2.7-2.1h-1.4v5.9h4.8c1.6,0,2-0.2,2.7-1.2l1.6-2.3l0.8,0.1l-0.7,4.9h-14.9v-1.1l2.9-0.6v-12.8l-2.9-0.6
		v-1.1h13.7L261,130.9z"/>
	<path class="st1" d="M275.4,134.8v0.3c1.4,0.4,2.4,1.5,3,2.6c0.7,1.4,1.2,2.5,1.9,3.1c0.6,0.6,1,0.8,2.7,1v1.1h-2.7
		c-2.1,0-2.7-0.7-3.7-2.7l-1.5-2.9c-0.7-1.5-1.4-1.6-2.9-1.6h-0.7v5.5l2.8,0.6v1.1h-8.5v-1.1l2.9-0.6v-12.8l-2.9-0.6v-1.1h8.1
		c4.2,0,6.4,1.5,6.4,4.1C280.2,133,278.4,134.2,275.4,134.8z M273.2,127.9c-0.7,0-1.2,0.1-1.8,0.2v6.1h1.8c2.4,0,4-1.1,4-3.3
		C277.1,128.9,275.6,127.9,273.2,127.9z"/>
	<path class="st1" d="M291.8,143.1c-1.3,0-2.9-0.3-3.8-0.7l-0.4,0.8h-1.2l-0.3-5.5l1.2-0.1c1.2,3.2,2.9,4.4,4.9,4.4
		c1.9,0,3-1.2,3-2.8c0-1.4-1-2.3-3.2-3.2c-0.8-0.4-1.5-0.6-2.3-0.9c-1.9-0.9-2.9-2.1-2.9-4.1c0-2.9,2.4-4.6,5.1-4.6
		c1.3,0,2.3,0.3,3,0.7l0.5-0.8h1.2l0.5,4.8l-1.2,0c-1.5-2.9-2.6-3.7-4.2-3.7c-1.5,0-2.4,1-2.4,2.3c0,1.5,0.8,2.3,2.6,3
		c0.9,0.4,1.7,0.7,2.7,1.1c2.1,1,3.2,2.2,3.2,4.3C297.5,141.4,294.7,143.1,291.8,143.1z"/>
</g>
</svg>
